Testcases/Terminal txt files/hazard_detection+forwarding_TestCase_1.txt
[Running] tb_pipe_hazard_forwarding.v
WARNING: ./instruction_fetch.v:16: Excess hex digits (2 of '0x01043103') while reading 32-bit words.
WARNING: ./instruction_fetch.v:16: $readmemh(instructions_test_1.hex): Not enough words in the file for the requested range [0:15].
VCD info: dumpfile TopLevel_tb.vcd opened for output.
=================================================
  Initial State (Before Simulation Starts)
=================================================
PC: 0000000000000000  |  Instruction: 01043103
=================================================

--- Fetch Stage ---
PC: 0000000000000000  |  Instruction: 01043103 | BranchTaken: 0 | Stall: 0
--- Decode Stage ---
Opcode: 0000000  |  rs1:  0  |  rs2:  0  |  rd:  0 | funct3: 000  |  funct7: 0000000  |  Immediate: 0000000000000000
--- Control Signals (Decode Stage) ---
Branch: 0  |  MemRead: 0  |  MemtoReg: 0 |ALUOp: 00  |  MemWrite: 0  |  ALUSrc: 0  |  RegWrite: 0
--- Execute Stage ---
ReadData1: 0000000000000000  |  ReadData2: 0000000000000000
ALUResult: 0000000000000000  |  Zero: 1 | PC: 0000000000000000 | ImmShifted:                    0 | PCPlusImmShifted: 0000000000000000 | ALUInput1: 0000000000000000 | ALUInput2: 0000000000000000
--- Control Signals (Execute Stage) ---
RegWrite: 0  |  MemtoReg: 0  |  Branch: 0 | MemRead: 0  |  MemWrite: 0  |  ALUSrc: 0  |  ALUOp: 00
--- Forwarding Unit ---
ForwardA: 00  |  ForwardB: 00
EX_MEM_ALUResult: 0000000000000000  |  MEM_WB_ALUResult: 0000000000000000
EX_MEM_rd_addr:  0  |  MEM_WB_rd_addr:  0
ID_EX_RegisterRs1:  0  |  ID_EX_RegisterRs2:  0
--- Forwarded Data and MUX Inputs ---
forwardedData1: 0000000000000000  |  forwardedData2: 0000000000000000
MUX Inputs (ALUInput2):
  readData2: 0000000000000000  |  EX_MEM_ALUResult: 0000000000000000  |  MEM_WB_ALUResult: 0000000000000000
MUX Inputs (ALU Input 1):
  readData1: 0000000000000000  |  EX_MEM_ALUResult: 0000000000000000  |  MEM_WB_ALUResult: 0000000000000000
--- Memory Stage ---
ALUResult: 0000000000000000  |  MemRead: 0  |  MemWrite: 0 | WriteData: 0000000000000000 | MemReadData: 0000000000000000
--- Control Signals (Memory Stage) ---
RegWrite: 0  |  MemtoReg: 0  |  Branch: 0 | MemRead: 0  |  MemWrite: 0
--- Write Back Stage ---
WriteData: 0000000000000000
--- Control Signals (Write Back Stage) ---
RegWrite: 0  |  MemtoReg: 0
--- Pipeline Registers ---
IF/ID: PC=0000000000000000  |  Instruction=00000000 | ID/EX: RegWrite=0  |  MemtoReg=0  |  ALUOp=00  |  ALUSrc=0
EX/MEM: ALUResult=0000000000000000  |  Zero=0  |  MemWrite=0 | MEM/WB: RegWrite=0  |  MemtoReg=0  |  WriteData=0000000000000000
--- Register File ---
x[0]: 0000000000000000  |  x[1]: 0000000000000001  |  x[2]: 0000000000000002  |  x[3]: 0000000000000003
x[4]: 0000000000000004  |  x[5]: 0000000000000005  |  x[6]: 0000000000000006  |  x[7]: 0000000000000007
x[8]: 0000000000000008  |  x[9]: 0000000000000009  |  x[10]: 000000000000000a  |  x[11]: 000000000000000b
x[12]: 000000000000000c  |  x[13]: 000000000000000d  |  x[14]: 000000000000000e  |  x[15]: 000000000000000f
x[16]: 0000000000000010  |  x[17]: 0000000000000011  |  x[18]: 0000000000000012  |  x[19]: 0000000000000013
x[20]: 0000000000000014  |  x[21]: 0000000000000015  |  x[22]: 0000000000000016  |  x[23]: 0000000000000017
x[24]: 0000000000000018  |  x[25]: 0000000000000019  |  x[26]: 000000000000001a  |  x[27]: 000000000000001b
x[28]: 000000000000001c  |  x[29]: 000000000000001d  |  x[30]: 000000000000001e  |  x[31]: 000000000000001f
--- Data Memory (Memory[0] - Memory[31]) ---
Mem[0]: 0000000000000000  |  Mem[1]: 0000000000000001  |  Mem[2]: 0000000000000002  |  Mem[3]: 0000000000000003
Mem[4]: 0000000000000004  |  Mem[5]: 0000000000000005  |  Mem[6]: 0000000000000006  |  Mem[7]: 0000000000000007
Mem[8]: 0000000000000008  |  Mem[9]: 0000000000000009  |  Mem[10]: 000000000000000a  |  Mem[11]: 000000000000000b
Mem[12]: 000000000000000c  |  Mem[13]: 000000000000000d  |  Mem[14]: 000000000000000e  |  Mem[15]: 000000000000000f
Mem[16]: 0000000000000010  |  Mem[17]: 0000000000000011  |  Mem[18]: 0000000000000012  |  Mem[19]: 0000000000000013
Mem[20]: 0000000000000014  |  Mem[21]: 0000000000000015  |  Mem[22]: 0000000000000016  |  Mem[23]: 0000000000000017
Mem[24]: 0000000000000018  |  Mem[25]: 0000000000000019  |  Mem[26]: 000000000000001a  |  Mem[27]: 000000000000001b
Mem[28]: 000000000000001c  |  Mem[29]: 000000000000001d  |  Mem[30]: 000000000000001e  |  Mem[31]: 000000000000001f
=================================================
  Clock Cycle: 1  |  Time: 20000 ns
=================================================
--- Fetch Stage ---
PC: 0000000000000004  |  Instruction: 00228233 | BranchTaken: 0 | Stall: 0
--- Decode Stage ---
Opcode: 0000011  |  rs1:  8  |  rs2: 16  |  rd:  2 | funct3: 011  |  funct7: 0000000  |  Immediate: 0000000000000010
--- Control Signals (Decode Stage) ---
Branch: 0  |  MemRead: 1  |  MemtoReg: 1 |ALUOp: 00  |  MemWrite: 0  |  ALUSrc: 1  |  RegWrite: 1
--- Execute Stage ---
ReadData1: 0000000000000000  |  ReadData2: 0000000000000000
ALUResult: 0000000000000000  |  Zero: 1 | PC: 0000000000000000 | ImmShifted:                    0 | PCPlusImmShifted: 0000000000000000 | ALUInput1: 0000000000000000 | ALUInput2: 0000000000000000
--- Control Signals (Execute Stage) ---
RegWrite: 0  |  MemtoReg: 0  |  Branch: 0 | MemRead: 0  |  MemWrite: 0  |  ALUSrc: 0  |  ALUOp: 00
--- Forwarding Unit ---
ForwardA: 00  |  ForwardB: 00
EX_MEM_ALUResult: 0000000000000000  |  MEM_WB_ALUResult: 0000000000000000
EX_MEM_rd_addr:  0  |  MEM_WB_rd_addr:  0
ID_EX_RegisterRs1:  0  |  ID_EX_RegisterRs2:  0
--- Forwarded Data and MUX Inputs ---
forwardedData1: 0000000000000000  |  forwardedData2: 0000000000000000
MUX Inputs (ALUInput2):
  readData2: 0000000000000000  |  EX_MEM_ALUResult: 0000000000000000  |  MEM_WB_ALUResult: 0000000000000000
MUX Inputs (ALU Input 1):
  readData1: 0000000000000000  |  EX_MEM_ALUResult: 0000000000000000  |  MEM_WB_ALUResult: 0000000000000000
--- Memory Stage ---
ALUResult: 0000000000000000  |  MemRead: 0  |  MemWrite: 0 | WriteData: 0000000000000000 | MemReadData: 0000000000000000
--- Control Signals (Memory Stage) ---
RegWrite: 0  |  MemtoReg: 0  |  Branch: 0 | MemRead: 0  |  MemWrite: 0
--- Write Back Stage ---
WriteData: 0000000000000000
--- Control Signals (Write Back Stage) ---
RegWrite: 0  |  MemtoReg: 0
--- Pipeline Registers ---
IF/ID: PC=0000000000000000  |  Instruction=01043103 | ID/EX: RegWrite=0  |  MemtoReg=0  |  ALUOp=00  |  ALUSrc=0
EX/MEM: ALUResult=0000000000000000  |  Zero=1  |  MemWrite=0 | MEM/WB: RegWrite=0  |  MemtoReg=0  |  WriteData=0000000000000000
--- Register File ---
x[0]: 0000000000000000  |  x[1]: 0000000000000001  |  x[2]: 0000000000000002  |  x[3]: 0000000000000003
x[4]: 0000000000000004  |  x[5]: 0000000000000005  |  x[6]: 0000000000000006  |  x[7]: 0000000000000007
x[8]: 0000000000000008  |  x[9]: 0000000000000009  |  x[10]: 000000000000000a  |  x[11]: 000000000000000b
x[12]: 000000000000000c  |  x[13]: 000000000000000d  |  x[14]: 000000000000000e  |  x[15]: 000000000000000f
x[16]: 0000000000000010  |  x[17]: 0000000000000011  |  x[18]: 0000000000000012  |  x[19]: 0000000000000013
x[20]: 0000000000000014  |  x[21]: 0000000000000015  |  x[22]: 0000000000000016  |  x[23]: 0000000000000017
x[24]: 0000000000000018  |  x[25]: 0000000000000019  |  x[26]: 000000000000001a  |  x[27]: 000000000000001b
x[28]: 000000000000001c  |  x[29]: 000000000000001d  |  x[30]: 000000000000001e  |  x[31]: 000000000000001f
--- Data Memory (Memory[0] - Memory[31]) ---
Mem[0]: 0000000000000000  |  Mem[1]: 0000000000000001  |  Mem[2]: 0000000000000002  |  Mem[3]: 0000000000000003
Mem[4]: 0000000000000004  |  Mem[5]: 0000000000000005  |  Mem[6]: 0000000000000006  |  Mem[7]: 0000000000000007
Mem[8]: 0000000000000008  |  Mem[9]: 0000000000000009  |  Mem[10]: 000000000000000a  |  Mem[11]: 000000000000000b
Mem[12]: 000000000000000c  |  Mem[13]: 000000000000000d  |  Mem[14]: 000000000000000e  |  Mem[15]: 000000000000000f
Mem[16]: 0000000000000010  |  Mem[17]: 0000000000000011  |  Mem[18]: 0000000000000012  |  Mem[19]: 0000000000000013
Mem[20]: 0000000000000014  |  Mem[21]: 0000000000000015  |  Mem[22]: 0000000000000016  |  Mem[23]: 0000000000000017
Mem[24]: 0000000000000018  |  Mem[25]: 0000000000000019  |  Mem[26]: 000000000000001a  |  Mem[27]: 000000000000001b
Mem[28]: 000000000000001c  |  Mem[29]: 000000000000001d  |  Mem[30]: 000000000000001e  |  Mem[31]: 000000000000001f
=================================================
  Clock Cycle: 2  |  Time: 30000 ns
=================================================
--- Fetch Stage ---
PC: 0000000000000008  |  Instruction: 40610433 | BranchTaken: 0 | Stall: 1
--- Decode Stage ---
Opcode: 0110011  |  rs1:  5  |  rs2:  2  |  rd:  4 | funct3: 000  |  funct7: 0000000  |  Immediate: 0000000000000000
--- Control Signals (Decode Stage) ---
Branch: 0  |  MemRead: 0  |  MemtoReg: 0 |ALUOp: 00  |  MemWrite: 0  |  ALUSrc: 0  |  RegWrite: 0
--- Execute Stage ---
ReadData1: 0000000000000008  |  ReadData2: 0000000000000010
ALUResult: 0000000000000018  |  Zero: 0 | PC: 0000000000000000 | ImmShifted:                   32 | PCPlusImmShifted: 0000000000000020 | ALUInput1: 0000000000000008 | ALUInput2: 0000000000000010
--- Control Signals (Execute Stage) ---
RegWrite: 1  |  MemtoReg: 1  |  Branch: 0 | MemRead: 1  |  MemWrite: 0  |  ALUSrc: 1  |  ALUOp: 00
--- Forwarding Unit ---
ForwardA: 00  |  ForwardB: 00
EX_MEM_ALUResult: 0000000000000000  |  MEM_WB_ALUResult: 0000000000000000
EX_MEM_rd_addr:  0  |  MEM_WB_rd_addr:  0
ID_EX_RegisterRs1:  8  |  ID_EX_RegisterRs2: 16
--- Forwarded Data and MUX Inputs ---
forwardedData1: 0000000000000008  |  forwardedData2: 0000000000000010
MUX Inputs (ALUInput2):
  readData2: 0000000000000010  |  EX_MEM_ALUResult: 0000000000000000  |  MEM_WB_ALUResult: 0000000000000000
MUX Inputs (ALU Input 1):
  readData1: 0000000000000008  |  EX_MEM_ALUResult: 0000000000000000  |  MEM_WB_ALUResult: 0000000000000000
--- Memory Stage ---
ALUResult: 0000000000000000  |  MemRead: 0  |  MemWrite: 0 | WriteData: 0000000000000000 | MemReadData: 0000000000000000
--- Control Signals (Memory Stage) ---
RegWrite: 0  |  MemtoReg: 0  |  Branch: 0 | MemRead: 0  |  MemWrite: 0
--- Write Back Stage ---
WriteData: 0000000000000000
--- Control Signals (Write Back Stage) ---
RegWrite: 0  |  MemtoReg: 0
--- Pipeline Registers ---
IF/ID: PC=0000000000000004  |  Instruction=00228233 | ID/EX: RegWrite=1  |  MemtoReg=1  |  ALUOp=00  |  ALUSrc=1
EX/MEM: ALUResult=0000000000000000  |  Zero=1  |  MemWrite=0 | MEM/WB: RegWrite=0  |  MemtoReg=0  |  WriteData=0000000000000000
--- Register File ---
x[0]: 0000000000000000  |  x[1]: 0000000000000001  |  x[2]: 0000000000000002  |  x[3]: 0000000000000003
x[4]: 0000000000000004  |  x[5]: 0000000000000005  |  x[6]: 0000000000000006  |  x[7]: 0000000000000007
x[8]: 0000000000000008  |  x[9]: 0000000000000009  |  x[10]: 000000000000000a  |  x[11]: 000000000000000b
x[12]: 000000000000000c  |  x[13]: 000000000000000d  |  x[14]: 000000000000000e  |  x[15]: 000000000000000f
x[16]: 0000000000000010  |  x[17]: 0000000000000011  |  x[18]: 0000000000000012  |  x[19]: 0000000000000013
x[20]: 0000000000000014  |  x[21]: 0000000000000015  |  x[22]: 0000000000000016  |  x[23]: 0000000000000017
x[24]: 0000000000000018  |  x[25]: 0000000000000019  |  x[26]: 000000000000001a  |  x[27]: 000000000000001b
x[28]: 000000000000001c  |  x[29]: 000000000000001d  |  x[30]: 000000000000001e  |  x[31]: 000000000000001f
--- Data Memory (Memory[0] - Memory[31]) ---
Mem[0]: 0000000000000000  |  Mem[1]: 0000000000000001  |  Mem[2]: 0000000000000002  |  Mem[3]: 0000000000000003
Mem[4]: 0000000000000004  |  Mem[5]: 0000000000000005  |  Mem[6]: 0000000000000006  |  Mem[7]: 0000000000000007
Mem[8]: 0000000000000008  |  Mem[9]: 0000000000000009  |  Mem[10]: 000000000000000a  |  Mem[11]: 000000000000000b
Mem[12]: 000000000000000c  |  Mem[13]: 000000000000000d  |  Mem[14]: 000000000000000e  |  Mem[15]: 000000000000000f
Mem[16]: 0000000000000010  |  Mem[17]: 0000000000000011  |  Mem[18]: 0000000000000012  |  Mem[19]: 0000000000000013
Mem[20]: 0000000000000014  |  Mem[21]: 0000000000000015  |  Mem[22]: 0000000000000016  |  Mem[23]: 0000000000000017
Mem[24]: 0000000000000018  |  Mem[25]: 0000000000000019  |  Mem[26]: 000000000000001a  |  Mem[27]: 000000000000001b
Mem[28]: 000000000000001c  |  Mem[29]: 000000000000001d  |  Mem[30]: 000000000000001e  |  Mem[31]: 000000000000001f
=================================================
  Clock Cycle: 3  |  Time: 40000 ns
=================================================
--- Fetch Stage ---
PC: 0000000000000008  |  Instruction: 40610433 | BranchTaken: 0 | Stall: 0
--- Decode Stage ---
Opcode: 0110011  |  rs1:  5  |  rs2:  2  |  rd:  4 | funct3: 000  |  funct7: 0000000  |  Immediate: 0000000000000000
--- Control Signals (Decode Stage) ---
Branch: 0  |  MemRead: 0  |  MemtoReg: 0 |ALUOp: 10  |  MemWrite: 0  |  ALUSrc: 0  |  RegWrite: 1
--- Execute Stage ---
ReadData1: 0000000000000000  |  ReadData2: 0000000000000000
ALUResult: 0000000000000000  |  Zero: 1 | PC: 0000000000000000 | ImmShifted:                    0 | PCPlusImmShifted: 0000000000000000 | ALUInput1: 0000000000000000 | ALUInput2: 0000000000000000
--- Control Signals (Execute Stage) ---
RegWrite: 0  |  MemtoReg: 0  |  Branch: 0 | MemRead: 0  |  MemWrite: 0  |  ALUSrc: 0  |  ALUOp: 00
--- Forwarding Unit ---
ForwardA: 00  |  ForwardB: 00
EX_MEM_ALUResult: 0000000000000018  |  MEM_WB_ALUResult: 0000000000000000
EX_MEM_rd_addr:  2  |  MEM_WB_rd_addr:  0
ID_EX_RegisterRs1:  0  |  ID_EX_RegisterRs2:  0
--- Forwarded Data and MUX Inputs ---
forwardedData1: 0000000000000000  |  forwardedData2: 0000000000000000
MUX Inputs (ALUInput2):
  readData2: 0000000000000000  |  EX_MEM_ALUResult: 0000000000000018  |  MEM_WB_ALUResult: 0000000000000000
MUX Inputs (ALU Input 1):
  readData1: 0000000000000000  |  EX_MEM_ALUResult: 0000000000000018  |  MEM_WB_ALUResult: 0000000000000000
--- Memory Stage ---
ALUResult: 0000000000000018  |  MemRead: 1  |  MemWrite: 0 | WriteData: 0000000000000010 | MemReadData: 0000000000000003
--- Control Signals (Memory Stage) ---
RegWrite: 1  |  MemtoReg: 1  |  Branch: 0 | MemRead: 1  |  MemWrite: 0
--- Write Back Stage ---
WriteData: 0000000000000000
--- Control Signals (Write Back Stage) ---
RegWrite: 0  |  MemtoReg: 0
--- Pipeline Registers ---
IF/ID: PC=0000000000000004  |  Instruction=00228233 | ID/EX: RegWrite=0  |  MemtoReg=0  |  ALUOp=00  |  ALUSrc=0
EX/MEM: ALUResult=0000000000000018  |  Zero=0  |  MemWrite=0 | MEM/WB: RegWrite=0  |  MemtoReg=0  |  WriteData=0000000000000000
--- Register File ---
x[0]: 0000000000000000  |  x[1]: 0000000000000001  |  x[2]: 0000000000000002  |  x[3]: 0000000000000003
x[4]: 0000000000000004  |  x[5]: 0000000000000005  |  x[6]: 0000000000000006  |  x[7]: 0000000000000007
x[8]: 0000000000000008  |  x[9]: 0000000000000009  |  x[10]: 000000000000000a  |  x[11]: 000000000000000b
x[12]: 000000000000000c  |  x[13]: 000000000000000d  |  x[14]: 000000000000000e  |  x[15]: 000000000000000f
x[16]: 0000000000000010  |  x[17]: 0000000000000011  |  x[18]: 0000000000000012  |  x[19]: 0000000000000013
x[20]: 0000000000000014  |  x[21]: 0000000000000015  |  x[22]: 0000000000000016  |  x[23]: 0000000000000017
x[24]: 0000000000000018  |  x[25]: 0000000000000019  |  x[26]: 000000000000001a  |  x[27]: 000000000000001b
x[28]: 000000000000001c  |  x[29]: 000000000000001d  |  x[30]: 000000000000001e  |  x[31]: 000000000000001f
--- Data Memory (Memory[0] - Memory[31]) ---
Mem[0]: 0000000000000000  |  Mem[1]: 0000000000000001  |  Mem[2]: 0000000000000002  |  Mem[3]: 0000000000000003
Mem[4]: 0000000000000004  |  Mem[5]: 0000000000000005  |  Mem[6]: 0000000000000006  |  Mem[7]: 0000000000000007
Mem[8]: 0000000000000008  |  Mem[9]: 0000000000000009  |  Mem[10]: 000000000000000a  |  Mem[11]: 000000000000000b
Mem[12]: 000000000000000c  |  Mem[13]: 000000000000000d  |  Mem[14]: 000000000000000e  |  Mem[15]: 000000000000000f
Mem[16]: 0000000000000010  |  Mem[17]: 0000000000000011  |  Mem[18]: 0000000000000012  |  Mem[19]: 0000000000000013
Mem[20]: 0000000000000014  |  Mem[21]: 0000000000000015  |  Mem[22]: 0000000000000016  |  Mem[23]: 0000000000000017
Mem[24]: 0000000000000018  |  Mem[25]: 0000000000000019  |  Mem[26]: 000000000000001a  |  Mem[27]: 000000000000001b
Mem[28]: 000000000000001c  |  Mem[29]: 000000000000001d  |  Mem[30]: 000000000000001e  |  Mem[31]: 000000000000001f
=================================================
  Clock Cycle: 4  |  Time: 50000 ns
=================================================
--- Fetch Stage ---
PC: 000000000000000c  |  Instruction: 002204b3 | BranchTaken: 0 | Stall: 0
--- Decode Stage ---
Opcode: 0110011  |  rs1:  2  |  rs2:  6  |  rd:  8 | funct3: 000  |  funct7: 0100000  |  Immediate: 0000000000000000
--- Control Signals (Decode Stage) ---
Branch: 0  |  MemRead: 0  |  MemtoReg: 0 |ALUOp: 10  |  MemWrite: 0  |  ALUSrc: 0  |  RegWrite: 1
--- Execute Stage ---
ReadData1: 0000000000000005  |  ReadData2: 0000000000000002
ALUResult: 0000000000000008  |  Zero: 0 | PC: 0000000000000004 | ImmShifted:                    0 | PCPlusImmShifted: 0000000000000004 | ALUInput1: 0000000000000005 | ALUInput2: 0000000000000003
--- Control Signals (Execute Stage) ---
RegWrite: 1  |  MemtoReg: 0  |  Branch: 0 | MemRead: 0  |  MemWrite: 0  |  ALUSrc: 0  |  ALUOp: 10
--- Forwarding Unit ---
ForwardA: 00  |  ForwardB: 11
EX_MEM_ALUResult: 0000000000000000  |  MEM_WB_ALUResult: 0000000000000018
EX_MEM_rd_addr:  0  |  MEM_WB_rd_addr:  2
ID_EX_RegisterRs1:  5  |  ID_EX_RegisterRs2:  2
--- Forwarded Data and MUX Inputs ---
forwardedData1: 0000000000000005  |  forwardedData2: 0000000000000003
MUX Inputs (ALUInput2):
  readData2: 0000000000000002  |  EX_MEM_ALUResult: 0000000000000000  |  MEM_WB_ALUResult: 0000000000000018
MUX Inputs (ALU Input 1):
  readData1: 0000000000000005  |  EX_MEM_ALUResult: 0000000000000000  |  MEM_WB_ALUResult: 0000000000000018
--- Memory Stage ---
ALUResult: 0000000000000000  |  MemRead: 0  |  MemWrite: 0 | WriteData: 0000000000000000 | MemReadData: 0000000000000000
--- Control Signals (Memory Stage) ---
RegWrite: 0  |  MemtoReg: 0  |  Branch: 0 | MemRead: 0  |  MemWrite: 0
--- Write Back Stage ---
WriteData: 0000000000000003
--- Control Signals (Write Back Stage) ---
RegWrite: 1  |  MemtoReg: 1
--- Pipeline Registers ---
IF/ID: PC=0000000000000008  |  Instruction=40610433 | ID/EX: RegWrite=1  |  MemtoReg=0  |  ALUOp=10  |  ALUSrc=0
EX/MEM: ALUResult=0000000000000000  |  Zero=1  |  MemWrite=0 | MEM/WB: RegWrite=1  |  MemtoReg=1  |  WriteData=0000000000000003
--- Register File ---
x[0]: 0000000000000000  |  x[1]: 0000000000000001  |  x[2]: 0000000000000003  |  x[3]: 0000000000000003
x[4]: 0000000000000004  |  x[5]: 0000000000000005  |  x[6]: 0000000000000006  |  x[7]: 0000000000000007
x[8]: 0000000000000008  |  x[9]: 0000000000000009  |  x[10]: 000000000000000a  |  x[11]: 000000000000000b
x[12]: 000000000000000c  |  x[13]: 000000000000000d  |  x[14]: 000000000000000e  |  x[15]: 000000000000000f
x[16]: 0000000000000010  |  x[17]: 0000000000000011  |  x[18]: 0000000000000012  |  x[19]: 0000000000000013
x[20]: 0000000000000014  |  x[21]: 0000000000000015  |  x[22]: 0000000000000016  |  x[23]: 0000000000000017
x[24]: 0000000000000018  |  x[25]: 0000000000000019  |  x[26]: 000000000000001a  |  x[27]: 000000000000001b
x[28]: 000000000000001c  |  x[29]: 000000000000001d  |  x[30]: 000000000000001e  |  x[31]: 000000000000001f
--- Data Memory (Memory[0] - Memory[31]) ---
Mem[0]: 0000000000000000  |  Mem[1]: 0000000000000001  |  Mem[2]: 0000000000000002  |  Mem[3]: 0000000000000003
Mem[4]: 0000000000000004  |  Mem[5]: 0000000000000005  |  Mem[6]: 0000000000000006  |  Mem[7]: 0000000000000007
Mem[8]: 0000000000000008  |  Mem[9]: 0000000000000009  |  Mem[10]: 000000000000000a  |  Mem[11]: 000000000000000b
Mem[12]: 000000000000000c  |  Mem[13]: 000000000000000d  |  Mem[14]: 000000000000000e  |  Mem[15]: 000000000000000f
Mem[16]: 0000000000000010  |  Mem[17]: 0000000000000011  |  Mem[18]: 0000000000000012  |  Mem[19]: 0000000000000013
Mem[20]: 0000000000000014  |  Mem[21]: 0000000000000015  |  Mem[22]: 0000000000000016  |  Mem[23]: 0000000000000017
Mem[24]: 0000000000000018  |  Mem[25]: 0000000000000019  |  Mem[26]: 000000000000001a  |  Mem[27]: 000000000000001b
Mem[28]: 000000000000001c  |  Mem[29]: 000000000000001d  |  Mem[30]: 000000000000001e  |  Mem[31]: 000000000000001f
=================================================
  Clock Cycle: 5  |  Time: 60000 ns
=================================================
--- Fetch Stage ---
PC: 0000000000000010  |  Instruction: xxxxxxxx | BranchTaken: 0 | Stall: 0
--- Decode Stage ---
Opcode: 0110011  |  rs1:  4  |  rs2:  2  |  rd:  9 | funct3: 000  |  funct7: 0000000  |  Immediate: 0000000000000000
--- Control Signals (Decode Stage) ---
Branch: 0  |  MemRead: 0  |  MemtoReg: 0 |ALUOp: 10  |  MemWrite: 0  |  ALUSrc: 0  |  RegWrite: 1
--- Execute Stage ---
ReadData1: 0000000000000003  |  ReadData2: 0000000000000006
ALUResult: fffffffffffffffd  |  Zero: 0 | PC: 0000000000000008 | ImmShifted:                    0 | PCPlusImmShifted: 0000000000000008 | ALUInput1: 0000000000000003 | ALUInput2: 0000000000000006
--- Control Signals (Execute Stage) ---
RegWrite: 1  |  MemtoReg: 0  |  Branch: 0 | MemRead: 0  |  MemWrite: 0  |  ALUSrc: 0  |  ALUOp: 10
--- Forwarding Unit ---
ForwardA: 00  |  ForwardB: 00
EX_MEM_ALUResult: 0000000000000008  |  MEM_WB_ALUResult: 0000000000000000
EX_MEM_rd_addr:  4  |  MEM_WB_rd_addr:  0
ID_EX_RegisterRs1:  2  |  ID_EX_RegisterRs2:  6
--- Forwarded Data and MUX Inputs ---
forwardedData1: 0000000000000003  |  forwardedData2: 0000000000000006
MUX Inputs (ALUInput2):
  readData2: 0000000000000006  |  EX_MEM_ALUResult: 0000000000000008  |  MEM_WB_ALUResult: 0000000000000000
MUX Inputs (ALU Input 1):
  readData1: 0000000000000003  |  EX_MEM_ALUResult: 0000000000000008  |  MEM_WB_ALUResult: 0000000000000000
--- Memory Stage ---
ALUResult: 0000000000000008  |  MemRead: 0  |  MemWrite: 0 | WriteData: 0000000000000003 | MemReadData: 0000000000000000
--- Control Signals (Memory Stage) ---
RegWrite: 1  |  MemtoReg: 0  |  Branch: 0 | MemRead: 0  |  MemWrite: 0
--- Write Back Stage ---
WriteData: 0000000000000000
--- Control Signals (Write Back Stage) ---
RegWrite: 0  |  MemtoReg: 0
--- Pipeline Registers ---
IF/ID: PC=000000000000000c  |  Instruction=002204b3 | ID/EX: RegWrite=1  |  MemtoReg=0  |  ALUOp=10  |  ALUSrc=0
EX/MEM: ALUResult=0000000000000008  |  Zero=0  |  MemWrite=0 | MEM/WB: RegWrite=0  |  MemtoReg=0  |  WriteData=0000000000000000
--- Register File ---
x[0]: 0000000000000000  |  x[1]: 0000000000000001  |  x[2]: 0000000000000003  |  x[3]: 0000000000000003
x[4]: 0000000000000004  |  x[5]: 0000000000000005  |  x[6]: 0000000000000006  |  x[7]: 0000000000000007
x[8]: 0000000000000008  |  x[9]: 0000000000000009  |  x[10]: 000000000000000a  |  x[11]: 000000000000000b
x[12]: 000000000000000c  |  x[13]: 000000000000000d  |  x[14]: 000000000000000e  |  x[15]: 000000000000000f
x[16]: 0000000000000010  |  x[17]: 0000000000000011  |  x[18]: 0000000000000012  |  x[19]: 0000000000000013
x[20]: 0000000000000014  |  x[21]: 0000000000000015  |  x[22]: 0000000000000016  |  x[23]: 0000000000000017
x[24]: 0000000000000018  |  x[25]: 0000000000000019  |  x[26]: 000000000000001a  |  x[27]: 000000000000001b
x[28]: 000000000000001c  |  x[29]: 000000000000001d  |  x[30]: 000000000000001e  |  x[31]: 000000000000001f
--- Data Memory (Memory[0] - Memory[31]) ---
Mem[0]: 0000000000000000  |  Mem[1]: 0000000000000001  |  Mem[2]: 0000000000000002  |  Mem[3]: 0000000000000003
Mem[4]: 0000000000000004  |  Mem[5]: 0000000000000005  |  Mem[6]: 0000000000000006  |  Mem[7]: 0000000000000007
Mem[8]: 0000000000000008  |  Mem[9]: 0000000000000009  |  Mem[10]: 000000000000000a  |  Mem[11]: 000000000000000b
Mem[12]: 000000000000000c  |  Mem[13]: 000000000000000d  |  Mem[14]: 000000000000000e  |  Mem[15]: 000000000000000f
Mem[16]: 0000000000000010  |  Mem[17]: 0000000000000011  |  Mem[18]: 0000000000000012  |  Mem[19]: 0000000000000013
Mem[20]: 0000000000000014  |  Mem[21]: 0000000000000015  |  Mem[22]: 0000000000000016  |  Mem[23]: 0000000000000017
Mem[24]: 0000000000000018  |  Mem[25]: 0000000000000019  |  Mem[26]: 000000000000001a  |  Mem[27]: 000000000000001b
Mem[28]: 000000000000001c  |  Mem[29]: 000000000000001d  |  Mem[30]: 000000000000001e  |  Mem[31]: 000000000000001f
=================================================
  Clock Cycle: 6  |  Time: 70000 ns
=================================================
--- Fetch Stage ---
PC: 0000000000000014  |  Instruction: xxxxxxxx | BranchTaken: 0 | Stall: 0
--- Decode Stage ---
Opcode: xxxxxxx  |  rs1:  x  |  rs2:  x  |  rd:  x | funct3: xxx  |  funct7: xxxxxxx  |  Immediate: 0000000000000000
--- Control Signals (Decode Stage) ---
Branch: 0  |  MemRead: 0  |  MemtoReg: 0 |ALUOp: 00  |  MemWrite: 0  |  ALUSrc: 0  |  RegWrite: 0
--- Execute Stage ---
ReadData1: 0000000000000004  |  ReadData2: 0000000000000003
ALUResult: 000000000000000b  |  Zero: 0 | PC: 000000000000000c | ImmShifted:                    0 | PCPlusImmShifted: 000000000000000c | ALUInput1: 0000000000000008 | ALUInput2: 0000000000000003
--- Control Signals (Execute Stage) ---
RegWrite: 1  |  MemtoReg: 0  |  Branch: 0 | MemRead: 0  |  MemWrite: 0  |  ALUSrc: 0  |  ALUOp: 10
--- Forwarding Unit ---
ForwardA: 01  |  ForwardB: 00
EX_MEM_ALUResult: fffffffffffffffd  |  MEM_WB_ALUResult: 0000000000000008
EX_MEM_rd_addr:  8  |  MEM_WB_rd_addr:  4
ID_EX_RegisterRs1:  4  |  ID_EX_RegisterRs2:  2
--- Forwarded Data and MUX Inputs ---
forwardedData1: 0000000000000008  |  forwardedData2: 0000000000000003
MUX Inputs (ALUInput2):
  readData2: 0000000000000003  |  EX_MEM_ALUResult: fffffffffffffffd  |  MEM_WB_ALUResult: 0000000000000008
MUX Inputs (ALU Input 1):
  readData1: 0000000000000004  |  EX_MEM_ALUResult: fffffffffffffffd  |  MEM_WB_ALUResult: 0000000000000008
--- Memory Stage ---
ALUResult: fffffffffffffffd  |  MemRead: 0  |  MemWrite: 0 | WriteData: 0000000000000006 | MemReadData: 0000000000000000
--- Control Signals (Memory Stage) ---
RegWrite: 1  |  MemtoReg: 0  |  Branch: 0 | MemRead: 0  |  MemWrite: 0
--- Write Back Stage ---
WriteData: 0000000000000008
--- Control Signals (Write Back Stage) ---
RegWrite: 1  |  MemtoReg: 0
--- Pipeline Registers ---
IF/ID: PC=0000000000000010  |  Instruction=xxxxxxxx | ID/EX: RegWrite=1  |  MemtoReg=0  |  ALUOp=10  |  ALUSrc=0
EX/MEM: ALUResult=fffffffffffffffd  |  Zero=0  |  MemWrite=0 | MEM/WB: RegWrite=1  |  MemtoReg=0  |  WriteData=0000000000000008
--- Register File ---
x[0]: 0000000000000000  |  x[1]: 0000000000000001  |  x[2]: 0000000000000003  |  x[3]: 0000000000000003
