Testcases/Terminal txt files/Pipelining_TestCase_1.txt
[Running] tb_pipe.v
WARNING: ./instruction_fetch.v:16: Excess hex digits (2 of '0x003100b3') while reading 32-bit words.
VCD info: dumpfile TopLevel_tb.vcd opened for output.

=================================================
  Clock Cycle: 0  |  Time: 10000 ns
=================================================

--- Fetch Stage ---
PC: 0000000000000000  |  Instruction: 003100b3 | BranchTaken: 0

--- Decode Stage ---
Opcode: 0000000  |  rs1:  0  |  rs2:  0  |  rd:  0
funct3: 000  |  funct7: 0000000  |  Immediate: 0000000000000000

--- Execute Stage ---
ReadData1: 0000000000000000  |  ReadData2: 0000000000000000
ALUResult: 0000000000000000  |  Zero: 1 | PC: 0000000000000000 | ImmShifted:                    0 | PCPlusImmShifted: 0000000000000000

--- Memory Stage ---
ALUResult: 0000000000000000  |  MemRead: 0  |  MemWrite: 0 | WriteData: 0000000000000000
MemReadData: 0000000000000000

--- Write Back Stage ---
WriteData: 0000000000000000

--- Pipeline Registers ---
IF/ID: PC=0000000000000000  |  Instruction=00000000
ID/EX: RegWrite=0  |  MemtoReg=0  |  ALUOp=00  |  ALUSrc=0
EX/MEM: ALUResult=0000000000000000  |  Zero=0  |  MemWrite=0
MEM/WB: RegWrite=0  |  MemtoReg=0  |  WriteData=0000000000000000

--- Register File ---
x[0]: 0000000000000000  |  x[1]: 0000000000000001  |  x[2]: 0000000000000002  |  x[3]: 0000000000000003
x[4]: 0000000000000004  |  x[5]: 0000000000000005  |  x[6]: 0000000000000006  |  x[7]: 0000000000000007
x[8]: 0000000000000008  |  x[9]: 0000000000000009  |  x[10]: 000000000000000a  |  x[11]: 000000000000000b
x[12]: 000000000000000c  |  x[13]: 000000000000000d  |  x[14]: 000000000000000e  |  x[15]: 000000000000000f
x[16]: 0000000000000010  |  x[17]: 0000000000000011  |  x[18]: 0000000000000012  |  x[19]: 0000000000000013
x[20]: 0000000000000014  |  x[21]: 0000000000000015  |  x[22]: 0000000000000016  |  x[23]: 0000000000000017
x[24]: 0000000000000018  |  x[25]: 0000000000000019  |  x[26]: 000000000000001a  |  x[27]: 000000000000001b
x[28]: 000000000000001c  |  x[29]: 000000000000001d  |  x[30]: 000000000000001e  |  x[31]: 000000000000001f

--- Data Memory (Memory[0] - Memory[31]) ---
Mem[0]: 0000000000000000  |  Mem[1]: 0000000000000001  |  Mem[2]: 0000000000000002  |  Mem[3]: 0000000000000003
Mem[4]: 0000000000000004  |  Mem[5]: 0000000000000005  |  Mem[6]: 0000000000000006  |  Mem[7]: 0000000000000007
Mem[8]: 0000000000000008  |  Mem[9]: 0000000000000009  |  Mem[10]: 000000000000000a  |  Mem[11]: 000000000000000b
Mem[12]: 000000000000000c  |  Mem[13]: 000000000000000d  |  Mem[14]: 000000000000000e  |  Mem[15]: 000000000000000f
Mem[16]: 0000000000000010  |  Mem[17]: 0000000000000011  |  Mem[18]: 0000000000000012  |  Mem[19]: 0000000000000013
Mem[20]: 0000000000000014  |  Mem[21]: 0000000000000015  |  Mem[22]: 0000000000000016  |  Mem[23]: 0000000000000017
Mem[24]: 0000000000000018  |  Mem[25]: 0000000000000019  |  Mem[26]: 000000000000001a  |  Mem[27]: 000000000000001b
Mem[28]: 000000000000001c  |  Mem[29]: 000000000000001d  |  Mem[30]: 000000000000001e  |  Mem[31]: 000000000000001f

=================================================
  Clock Cycle: 1  |  Time: 20000 ns
=================================================

--- Fetch Stage ---
PC: 0000000000000004  |  Instruction: 40310233 | BranchTaken: 0

--- Decode Stage ---
Opcode: 0110011  |  rs1:  2  |  rs2:  3  |  rd:  1
funct3: 000  |  funct7: 0000000  |  Immediate: 0000000000000000

--- Execute Stage ---
ReadData1: 0000000000000000  |  ReadData2: 0000000000000000
ALUResult: 0000000000000000  |  Zero: 1 | PC: 0000000000000000 | ImmShifted:                    0 | PCPlusImmShifted: 0000000000000000

--- Memory Stage ---
ALUResult: 0000000000000000  |  MemRead: 0  |  MemWrite: 0 | WriteData: 0000000000000000
MemReadData: 0000000000000000

--- Write Back Stage ---
WriteData: 0000000000000000

--- Pipeline Registers ---
IF/ID: PC=0000000000000000  |  Instruction=003100b3
ID/EX: RegWrite=0  |  MemtoReg=0  |  ALUOp=00  |  ALUSrc=0
EX/MEM: ALUResult=0000000000000000  |  Zero=1  |  MemWrite=0
MEM/WB: RegWrite=0  |  MemtoReg=0  |  WriteData=0000000000000000

--- Register File ---
x[0]: 0000000000000000  |  x[1]: 0000000000000001  |  x[2]: 0000000000000002  |  x[3]: 0000000000000003
x[4]: 0000000000000004  |  x[5]: 0000000000000005  |  x[6]: 0000000000000006  |  x[7]: 0000000000000007
x[8]: 0000000000000008  |  x[9]: 0000000000000009  |  x[10]: 000000000000000a  |  x[11]: 000000000000000b
x[12]: 000000000000000c  |  x[13]: 000000000000000d  |  x[14]: 000000000000000e  |  x[15]: 000000000000000f
x[16]: 0000000000000010  |  x[17]: 0000000000000011  |  x[18]: 0000000000000012  |  x[19]: 0000000000000013
x[20]: 0000000000000014  |  x[21]: 0000000000000015  |  x[22]: 0000000000000016  |  x[23]: 0000000000000017
x[24]: 0000000000000018  |  x[25]: 0000000000000019  |  x[26]: 000000000000001a  |  x[27]: 000000000000001b
x[28]: 000000000000001c  |  x[29]: 000000000000001d  |  x[30]: 000000000000001e  |  x[31]: 000000000000001f

--- Data Memory (Memory[0] - Memory[31]) ---
Mem[0]: 0000000000000000  |  Mem[1]: 0000000000000001  |  Mem[2]: 0000000000000002  |  Mem[3]: 0000000000000003
Mem[4]: 0000000000000004  |  Mem[5]: 0000000000000005  |  Mem[6]: 0000000000000006  |  Mem[7]: 0000000000000007
Mem[8]: 0000000000000008  |  Mem[9]: 0000000000000009  |  Mem[10]: 000000000000000a  |  Mem[11]: 000000000000000b
Mem[12]: 000000000000000c  |  Mem[13]: 000000000000000d  |  Mem[14]: 000000000000000e  |  Mem[15]: 000000000000000f
Mem[16]: 0000000000000010  |  Mem[17]: 0000000000000011  |  Mem[18]: 0000000000000012  |  Mem[19]: 0000000000000013
Mem[20]: 0000000000000014  |  Mem[21]: 0000000000000015  |  Mem[22]: 0000000000000016  |  Mem[23]: 0000000000000017
Mem[24]: 0000000000000018  |  Mem[25]: 0000000000000019  |  Mem[26]: 000000000000001a  |  Mem[27]: 000000000000001b
Mem[28]: 000000000000001c  |  Mem[29]: 000000000000001d  |  Mem[30]: 000000000000001e  |  Mem[31]: 000000000000001f

=================================================
  Clock Cycle: 2  |  Time: 30000 ns
=================================================

--- Fetch Stage ---
PC: 0000000000000008  |  Instruction: 003172b3 | BranchTaken: 0

--- Decode Stage ---
Opcode: 0110011  |  rs1:  2  |  rs2:  3  |  rd:  4
funct3: 000  |  funct7: 0100000  |  Immediate: 0000000000000000

--- Execute Stage ---
ReadData1: 0000000000000002  |  ReadData2: 0000000000000003
ALUResult: 0000000000000005  |  Zero: 0 | PC: 0000000000000000 | ImmShifted:                    0 | PCPlusImmShifted: 0000000000000000

--- Memory Stage ---
ALUResult: 0000000000000000  |  MemRead: 0  |  MemWrite: 0 | WriteData: 0000000000000000
MemReadData: 0000000000000000

--- Write Back Stage ---
WriteData: 0000000000000000

--- Pipeline Registers ---
IF/ID: PC=0000000000000004  |  Instruction=40310233
ID/EX: RegWrite=1  |  MemtoReg=0  |  ALUOp=10  |  ALUSrc=0
EX/MEM: ALUResult=0000000000000000  |  Zero=1  |  MemWrite=0
MEM/WB: RegWrite=0  |  MemtoReg=0  |  WriteData=0000000000000000

--- Register File ---
x[0]: 0000000000000000  |  x[1]: 0000000000000001  |  x[2]: 0000000000000002  |  x[3]: 0000000000000003
x[4]: 0000000000000004  |  x[5]: 0000000000000005  |  x[6]: 0000000000000006  |  x[7]: 0000000000000007
x[8]: 0000000000000008  |  x[9]: 0000000000000009  |  x[10]: 000000000000000a  |  x[11]: 000000000000000b
x[12]: 000000000000000c  |  x[13]: 000000000000000d  |  x[14]: 000000000000000e  |  x[15]: 000000000000000f
x[16]: 0000000000000010  |  x[17]: 0000000000000011  |  x[18]: 0000000000000012  |  x[19]: 0000000000000013
x[20]: 0000000000000014  |  x[21]: 0000000000000015  |  x[22]: 0000000000000016  |  x[23]: 0000000000000017
x[24]: 0000000000000018  |  x[25]: 0000000000000019  |  x[26]: 000000000000001a  |  x[27]: 000000000000001b
x[28]: 000000000000001c  |  x[29]: 000000000000001d  |  x[30]: 000000000000001e  |  x[31]: 000000000000001f

--- Data Memory (Memory[0] - Memory[31]) ---
Mem[0]: 0000000000000000  |  Mem[1]: 0000000000000001  |  Mem[2]: 0000000000000002  |  Mem[3]: 0000000000000003
Mem[4]: 0000000000000004  |  Mem[5]: 0000000000000005  |  Mem[6]: 0000000000000006  |  Mem[7]: 0000000000000007
Mem[8]: 0000000000000008  |  Mem[9]: 0000000000000009  |  Mem[10]: 000000000000000a  |  Mem[11]: 000000000000000b
Mem[12]: 000000000000000c  |  Mem[13]: 000000000000000d  |  Mem[14]: 000000000000000e  |  Mem[15]: 000000000000000f
Mem[16]: 0000000000000010  |  Mem[17]: 0000000000000011  |  Mem[18]: 0000000000000012  |  Mem[19]: 0000000000000013
Mem[20]: 0000000000000014  |  Mem[21]: 0000000000000015  |  Mem[22]: 0000000000000016  |  Mem[23]: 0000000000000017
Mem[24]: 0000000000000018  |  Mem[25]: 0000000000000019  |  Mem[26]: 000000000000001a  |  Mem[27]: 000000000000001b
Mem[28]: 000000000000001c  |  Mem[29]: 000000000000001d  |  Mem[30]: 000000000000001e  |  Mem[31]: 000000000000001f

=================================================
  Clock Cycle: 3  |  Time: 40000 ns
=================================================

--- Fetch Stage ---
PC: 000000000000000c  |  Instruction: 00316333 | BranchTaken: 0

--- Decode Stage ---
Opcode: 0110011  |  rs1:  2  |  rs2:  3  |  rd:  5
funct3: 111  |  funct7: 0000000  |  Immediate: 0000000000000000

--- Execute Stage ---
ReadData1: 0000000000000002  |  ReadData2: 0000000000000003
ALUResult: ffffffffffffffff  |  Zero: 0 | PC: 0000000000000004 | ImmShifted:                    0 | PCPlusImmShifted: 0000000000000004

--- Memory Stage ---
ALUResult: 0000000000000005  |  MemRead: 0  |  MemWrite: 0 | WriteData: 0000000000000003
MemReadData: 0000000000000000

--- Write Back Stage ---
WriteData: 0000000000000000

--- Pipeline Registers ---
IF/ID: PC=0000000000000008  |  Instruction=003172b3
ID/EX: RegWrite=1  |  MemtoReg=0  |  ALUOp=10  |  ALUSrc=0
EX/MEM: ALUResult=0000000000000005  |  Zero=0  |  MemWrite=0
MEM/WB: RegWrite=0  |  MemtoReg=0  |  WriteData=0000000000000000

--- Register File ---
x[0]: 0000000000000000  |  x[1]: 0000000000000001  |  x[2]: 0000000000000002  |  x[3]: 0000000000000003
x[4]: 0000000000000004  |  x[5]: 0000000000000005  |  x[6]: 0000000000000006  |  x[7]: 0000000000000007
x[8]: 0000000000000008  |  x[9]: 0000000000000009  |  x[10]: 000000000000000a  |  x[11]: 000000000000000b
x[12]: 000000000000000c  |  x[13]: 000000000000000d  |  x[14]: 000000000000000e  |  x[15]: 000000000000000f
x[16]: 0000000000000010  |  x[17]: 0000000000000011  |  x[18]: 0000000000000012  |  x[19]: 0000000000000013
x[20]: 0000000000000014  |  x[21]: 0000000000000015  |  x[22]: 0000000000000016  |  x[23]: 0000000000000017
x[24]: 0000000000000018  |  x[25]: 0000000000000019  |  x[26]: 000000000000001a  |  x[27]: 000000000000001b
x[28]: 000000000000001c  |  x[29]: 000000000000001d  |  x[30]: 000000000000001e  |  x[31]: 000000000000001f

--- Data Memory (Memory[0] - Memory[31]) ---
Mem[0]: 0000000000000000  |  Mem[1]: 0000000000000001  |  Mem[2]: 0000000000000002  |  Mem[3]: 0000000000000003
Mem[4]: 0000000000000004  |  Mem[5]: 0000000000000005  |  Mem[6]: 0000000000000006  |  Mem[7]: 0000000000000007
Mem[8]: 0000000000000008  |  Mem[9]: 0000000000000009  |  Mem[10]: 000000000000000a  |  Mem[11]: 000000000000000b
Mem[12]: 000000000000000c  |  Mem[13]: 000000000000000d  |  Mem[14]: 000000000000000e  |  Mem[15]: 000000000000000f
Mem[16]: 0000000000000010  |  Mem[17]: 0000000000000011  |  Mem[18]: 0000000000000012  |  Mem[19]: 0000000000000013
Mem[20]: 0000000000000014  |  Mem[21]: 0000000000000015  |  Mem[22]: 0000000000000016  |  Mem[23]: 0000000000000017
Mem[24]: 0000000000000018  |  Mem[25]: 0000000000000019  |  Mem[26]: 000000000000001a  |  Mem[27]: 000000000000001b
Mem[28]: 000000000000001c  |  Mem[29]: 000000000000001d  |  Mem[30]: 000000000000001e  |  Mem[31]: 000000000000001f

=================================================
  Clock Cycle: 4  |  Time: 50000 ns
=================================================

--- Fetch Stage ---
PC: 0000000000000010  |  Instruction: 009403b3 | BranchTaken: 0

--- Decode Stage ---
Opcode: 0110011  |  rs1:  2  |  rs2:  3  |  rd:  6
funct3: 110  |  funct7: 0000000  |  Immediate: 0000000000000000

--- Execute Stage ---
ReadData1: 0000000000000002  |  ReadData2: 0000000000000003
ALUResult: 0000000000000002  |  Zero: 0 | PC: 0000000000000008 | ImmShifted:                    0 | PCPlusImmShifted: 0000000000000008

--- Memory Stage ---
ALUResult: ffffffffffffffff  |  MemRead: 0  |  MemWrite: 0 | WriteData: 0000000000000003
MemReadData: 0000000000000000

--- Write Back Stage ---
WriteData: 0000000000000005

--- Pipeline Registers ---
IF/ID: PC=000000000000000c  |  Instruction=00316333
ID/EX: RegWrite=1  |  MemtoReg=0  |  ALUOp=10  |  ALUSrc=0
EX/MEM: ALUResult=ffffffffffffffff  |  Zero=0  |  MemWrite=0
MEM/WB: RegWrite=1  |  MemtoReg=0  |  WriteData=0000000000000005

--- Register File ---
x[0]: 0000000000000000  |  x[1]: 0000000000000005  |  x[2]: 0000000000000002  |  x[3]: 0000000000000003
x[4]: 0000000000000004  |  x[5]: 0000000000000005  |  x[6]: 0000000000000006  |  x[7]: 0000000000000007
x[8]: 0000000000000008  |  x[9]: 0000000000000009  |  x[10]: 000000000000000a  |  x[11]: 000000000000000b
x[12]: 000000000000000c  |  x[13]: 000000000000000d  |  x[14]: 000000000000000e  |  x[15]: 000000000000000f
x[16]: 0000000000000010  |  x[17]: 0000000000000011  |  x[18]: 0000000000000012  |  x[19]: 0000000000000013
x[20]: 0000000000000014  |  x[21]: 0000000000000015  |  x[22]: 0000000000000016  |  x[23]: 0000000000000017
x[24]: 0000000000000018  |  x[25]: 0000000000000019  |  x[26]: 000000000000001a  |  x[27]: 000000000000001b
x[28]: 000000000000001c  |  x[29]: 000000000000001d  |  x[30]: 000000000000001e  |  x[31]: 000000000000001f

--- Data Memory (Memory[0] - Memory[31]) ---
Mem[0]: 0000000000000000  |  Mem[1]: 0000000000000001  |  Mem[2]: 0000000000000002  |  Mem[3]: 0000000000000003
Mem[4]: 0000000000000004  |  Mem[5]: 0000000000000005  |  Mem[6]: 0000000000000006  |  Mem[7]: 0000000000000007
Mem[8]: 0000000000000008  |  Mem[9]: 0000000000000009  |  Mem[10]: 000000000000000a  |  Mem[11]: 000000000000000b
Mem[12]: 000000000000000c  |  Mem[13]: 000000000000000d  |  Mem[14]: 000000000000000e  |  Mem[15]: 000000000000000f
Mem[16]: 0000000000000010  |  Mem[17]: 0000000000000011  |  Mem[18]: 0000000000000012  |  Mem[19]: 0000000000000013
Mem[20]: 0000000000000014  |  Mem[21]: 0000000000000015  |  Mem[22]: 0000000000000016  |  Mem[23]: 0000000000000017
Mem[24]: 0000000000000018  |  Mem[25]: 0000000000000019  |  Mem[26]: 000000000000001a  |  Mem[27]: 000000000000001b
Mem[28]: 000000000000001c  |  Mem[29]: 000000000000001d  |  Mem[30]: 000000000000001e  |  Mem[31]: 000000000000001f

=================================================
  Clock Cycle: 5  |  Time: 60000 ns
=================================================

--- Fetch Stage ---
PC: 0000000000000014  |  Instruction: 409403b3 | BranchTaken: 0

--- Decode Stage ---
Opcode: 0110011  |  rs1:  8  |  rs2:  9  |  rd:  7
funct3: 000  |  funct7: 0000000  |  Immediate: 0000000000000000

--- Execute Stage ---
ReadData1: 0000000000000002  |  ReadData2: 0000000000000003
ALUResult: 0000000000000003  |  Zero: 0 | PC: 000000000000000c | ImmShifted:                    0 | PCPlusImmShifted: 000000000000000c

--- Memory Stage ---
ALUResult: 0000000000000002  |  MemRead: 0  |  MemWrite: 0 | WriteData: 0000000000000003
MemReadData: 0000000000000000

--- Write Back Stage ---
WriteData: ffffffffffffffff

--- Pipeline Registers ---
IF/ID: PC=0000000000000010  |  Instruction=009403b3
ID/EX: RegWrite=1  |  MemtoReg=0  |  ALUOp=10  |  ALUSrc=0
EX/MEM: ALUResult=0000000000000002  |  Zero=0  |  MemWrite=0
MEM/WB: RegWrite=1  |  MemtoReg=0  |  WriteData=ffffffffffffffff

--- Register File ---
x[0]: 0000000000000000  |  x[1]: 0000000000000005  |  x[2]: 0000000000000002  |  x[3]: 0000000000000003
x[4]: ffffffffffffffff  |  x[5]: 0000000000000005  |  x[6]: 0000000000000006  |  x[7]: 0000000000000007
x[8]: 0000000000000008  |  x[9]: 0000000000000009  |  x[10]: 000000000000000a  |  x[11]: 000000000000000b
x[12]: 000000000000000c  |  x[13]: 000000000000000d  |  x[14]: 000000000000000e  |  x[15]: 000000000000000f
x[16]: 0000000000000010  |  x[17]: 0000000000000011  |  x[18]: 0000000000000012  |  x[19]: 0000000000000013
x[20]: 0000000000000014  |  x[21]: 0000000000000015  |  x[22]: 0000000000000016  |  x[23]: 0000000000000017
x[24]: 0000000000000018  |  x[25]: 0000000000000019  |  x[26]: 000000000000001a  |  x[27]: 000000000000001b
x[28]: 000000000000001c  |  x[29]: 000000000000001d  |  x[30]: 000000000000001e  |  x[31]: 000000000000001f

--- Data Memory (Memory[0] - Memory[31]) ---
Mem[0]: 0000000000000000  |  Mem[1]: 0000000000000001  |  Mem[2]: 0000000000000002  |  Mem[3]: 0000000000000003
Mem[4]: 0000000000000004  |  Mem[5]: 0000000000000005  |  Mem[6]: 0000000000000006  |  Mem[7]: 0000000000000007
Mem[8]: 0000000000000008  |  Mem[9]: 0000000000000009  |  Mem[10]: 000000000000000a  |  Mem[11]: 000000000000000b
Mem[12]: 000000000000000c  |  Mem[13]: 000000000000000d  |  Mem[14]: 000000000000000e  |  Mem[15]: 000000000000000f
Mem[16]: 0000000000000010  |  Mem[17]: 0000000000000011  |  Mem[18]: 0000000000000012  |  Mem[19]: 0000000000000013
Mem[20]: 0000000000000014  |  Mem[21]: 0000000000000015  |  Mem[22]: 0000000000000016  |  Mem[23]: 0000000000000017
Mem[24]: 0000000000000018  |  Mem[25]: 0000000000000019  |  Mem[26]: 000000000000001a  |  Mem[27]: 000000000000001b
Mem[28]: 000000000000001c  |  Mem[29]: 000000000000001d  |  Mem[30]: 000000000000001e  |  Mem[31]: 000000000000001f

=================================================
  Clock Cycle: 6  |  Time: 70000 ns
=================================================

--- Fetch Stage ---
PC: 0000000000000018  |  Instruction: 00a40513 | BranchTaken: 0

--- Decode Stage ---
Opcode: 0110011  |  rs1:  8  |  rs2:  9  |  rd:  7
funct3: 000  |  funct7: 0100000  |  Immediate: 0000000000000000

--- Execute Stage ---
ReadData1: 0000000000000008  |  ReadData2: 0000000000000009
ALUResult: 0000000000000011  |  Zero: 0 | PC: 0000000000000010 | ImmShifted:                    0 | PCPlusImmShifted: 0000000000000010

--- Memory Stage ---
ALUResult: 0000000000000003  |  MemRead: 0  |  MemWrite: 0 | WriteData: 0000000000000003
MemReadData: 0000000000000000

--- Write Back Stage ---
WriteData: 0000000000000002

--- Pipeline Registers ---
IF/ID: PC=0000000000000014  |  Instruction=409403b3
ID/EX: RegWrite=1  |  MemtoReg=0  |  ALUOp=10  |  ALUSrc=0
EX/MEM: ALUResult=0000000000000003  |  Zero=0  |  MemWrite=0
MEM/WB: RegWrite=1  |  MemtoReg=0  |  WriteData=0000000000000002

--- Register File ---
x[0]: 0000000000000000  |  x[1]: 0000000000000005  |  x[2]: 0000000000000002  |  x[3]: 0000000000000003
x[4]: ffffffffffffffff  |  x[5]: 0000000000000002  |  x[6]: 0000000000000006  |  x[7]: 0000000000000007
x[8]: 0000000000000008  |  x[9]: 0000000000000009  |  x[10]: 000000000000000a  |  x[11]: 000000000000000b
x[12]: 000000000000000c  |  x[13]: 000000000000000d  |  x[14]: 000000000000000e  |  x[15]: 000000000000000f
x[16]: 0000000000000010  |  x[17]: 0000000000000011  |  x[18]: 0000000000000012  |  x[19]: 0000000000000013
x[20]: 0000000000000014  |  x[21]: 0000000000000015  |  x[22]: 0000000000000016  |  x[23]: 0000000000000017
x[24]: 0000000000000018  |  x[25]: 0000000000000019  |  x[26]: 000000000000001a  |  x[27]: 000000000000001b
x[28]: 000000000000001c  |  x[29]: 000000000000001d  |  x[30]: 000000000000001e  |  x[31]: 000000000000001f

--- Data Memory (Memory[0] - Memory[31]) ---
Mem[0]: 0000000000000000  |  Mem[1]: 0000000000000001  |  Mem[2]: 0000000000000002  |  Mem[3]: 0000000000000003
Mem[4]: 0000000000000004  |  Mem[5]: 0000000000000005  |  Mem[6]: 0000000000000006  |  Mem[7]: 0000000000000007
Mem[8]: 0000000000000008  |  Mem[9]: 0000000000000009  |  Mem[10]: 000000000000000a  |  Mem[11]: 000000000000000b
Mem[12]: 000000000000000c  |  Mem[13]: 000000000000000d  |  Mem[14]: 000000000000000e  |  Mem[15]: 000000000000000f
Mem[16]: 0000000000000010  |  Mem[17]: 0000000000000011  |  Mem[18]: 0000000000000012  |  Mem[19]: 0000000000000013
Mem[20]: 0000000000000014  |  Mem[21]: 0000000000000015  |  Mem[22]: 0000000000000016  |  Mem[23]: 0000000000000017
Mem[24]: 0000000000000018  |  Mem[25]: 0000000000000019  |  Mem[26]: 000000000000001a  |  Mem[27]: 000000000000001b
Mem[28]: 000000000000001c  |  Mem[29]: 000000000000001d  |  Mem[30]: 000000000000001e  |  Mem[31]: 000000000000001f

=================================================
  Clock Cycle: 7  |  Time: 80000 ns
=================================================

--- Fetch Stage ---
PC: 000000000000001c  |  Instruction: 009465b3 | BranchTaken: 0

--- Decode Stage ---
Opcode: 0010011  |  rs1:  8  |  rs2:  0  |  rd: 10
funct3: 000  |  funct7: 0000000  |  Immediate: 000000000000000a

--- Execute Stage ---
ReadData1: 0000000000000008  |  ReadData2: 0000000000000009
ALUResult: ffffffffffffffff  |  Zero: 0 | PC: 0000000000000014 | ImmShifted:                    0 | PCPlusImmShifted: 0000000000000014

--- Memory Stage ---
ALUResult: 0000000000000011  |  MemRead: 0  |  MemWrite: 0 | WriteData: 0000000000000009
MemReadData: 0000000000000000

--- Write Back Stage ---
WriteData: 0000000000000003

--- Pipeline Registers ---
IF/ID: PC=0000000000000018  |  Instruction=00a40513
ID/EX: RegWrite=1  |  MemtoReg=0  |  ALUOp=10  |  ALUSrc=0
EX/MEM: ALUResult=0000000000000011  |  Zero=0  |  MemWrite=0
MEM/WB: RegWrite=1  |  MemtoReg=0  |  WriteData=0000000000000003

--- Register File ---
x[0]: 0000000000000000  |  x[1]: 0000000000000005  |  x[2]: 0000000000000002  |  x[3]: 0000000000000003
x[4]: ffffffffffffffff  |  x[5]: 0000000000000002  |  x[6]: 0000000000000003  |  x[7]: 0000000000000007
x[8]: 0000000000000008  |  x[9]: 0000000000000009  |  x[10]: 000000000000000a  |  x[11]: 000000000000000b
x[12]: 000000000000000c  |  x[13]: 000000000000000d  |  x[14]: 000000000000000e  |  x[15]: 000000000000000f
x[16]: 0000000000000010  |  x[17]: 0000000000000011  |  x[18]: 0000000000000012  |  x[19]: 0000000000000013
x[20]: 0000000000000014  |  x[21]: 0000000000000015  |  x[22]: 0000000000000016  |  x[23]: 0000000000000017
x[24]: 0000000000000018  |  x[25]: 0000000000000019  |  x[26]: 000000000000001a  |  x[27]: 000000000000001b
x[28]: 000000000000001c  |  x[29]: 000000000000001d  |  x[30]: 000000000000001e  |  x[31]: 000000000000001f

--- Data Memory (Memory[0] - Memory[31]) ---
Mem[0]: 0000000000000000  |  Mem[1]: 0000000000000001  |  Mem[2]: 0000000000000002  |  Mem[3]: 0000000000000003
Mem[4]: 0000000000000004  |  Mem[5]: 0000000000000005  |  Mem[6]: 0000000000000006  |  Mem[7]: 0000000000000007
Mem[8]: 0000000000000008  |  Mem[9]: 0000000000000009  |  Mem[10]: 000000000000000a  |  Mem[11]: 000000000000000b
Mem[12]: 000000000000000c  |  Mem[13]: 000000000000000d  |  Mem[14]: 000000000000000e  |  Mem[15]: 000000000000000f
Mem[16]: 0000000000000010  |  Mem[17]: 0000000000000011  |  Mem[18]: 0000000000000012  |  Mem[19]: 0000000000000013
Mem[20]: 0000000000000014  |  Mem[21]: 0000000000000015  |  Mem[22]: 0000000000000016  |  Mem[23]: 0000000000000017
Mem[24]: 0000000000000018  |  Mem[25]: 0000000000000019  |  Mem[26]: 000000000000001a  |  Mem[27]: 000000000000001b
Mem[28]: 000000000000001c  |  Mem[29]: 000000000000001d  |  Mem[30]: 000000000000001e  |  Mem[31]: 000000000000001f

=================================================
  Clock Cycle: 8  |  Time: 90000 ns
=================================================

--- Fetch Stage ---
PC: 0000000000000020  |  Instruction: 00946633 | BranchTaken: 0

--- Decode Stage ---
Opcode: 0110011  |  rs1:  8  |  rs2:  9  |  rd: 11
funct3: 110  |  funct7: 0000000  |  Immediate: 0000000000000000

--- Execute Stage ---
ReadData1: 0000000000000008  |  ReadData2: 0000000000000000
ALUResult: 0000000000000012  |  Zero: 0 | PC: 0000000000000018 | ImmShifted:                   20 | PCPlusImmShifted: 000000000000002c

--- Memory Stage ---
ALUResult: ffffffffffffffff  |  MemRead: 0  |  MemWrite: 0 | WriteData: 0000000000000009
MemReadData: 0000000000000000

--- Write Back Stage ---
WriteData: 0000000000000011

--- Pipeline Registers ---
IF/ID: PC=000000000000001c  |  Instruction=009465b3
ID/EX: RegWrite=1  |  MemtoReg=0  |  ALUOp=00  |  ALUSrc=1
EX/MEM: ALUResult=ffffffffffffffff  |  Zero=0  |  MemWrite=0
MEM/WB: RegWrite=1  |  MemtoReg=0  |  WriteData=0000000000000011

--- Register File ---
x[0]: 0000000000000000  |  x[1]: 0000000000000005  |  x[2]: 0000000000000002  |  x[3]: 0000000000000003
x[4]: ffffffffffffffff  |  x[5]: 0000000000000002  |  x[6]: 0000000000000003  |  x[7]: 0000000000000011
x[8]: 0000000000000008  |  x[9]: 0000000000000009  |  x[10]: 000000000000000a  |  x[11]: 000000000000000b
x[12]: 000000000000000c  |  x[13]: 000000000000000d  |  x[14]: 000000000000000e  |  x[15]: 000000000000000f
x[16]: 0000000000000010  |  x[17]: 0000000000000011  |  x[18]: 0000000000000012  |  x[19]: 0000000000000013
x[20]: 0000000000000014  |  x[21]: 0000000000000015  |  x[22]: 0000000000000016  |  x[23]: 0000000000000017
x[24]: 0000000000000018  |  x[25]: 0000000000000019  |  x[26]: 000000000000001a  |  x[27]: 000000000000001b
x[28]: 000000000000001c  |  x[29]: 000000000000001d  |  x[30]: 000000000000001e  |  x[31]: 000000000000001f

--- Data Memory (Memory[0] - Memory[31]) ---
Mem[0]: 0000000000000000  |  Mem[1]: 0000000000000001  |  Mem[2]: 0000000000000002  |  Mem[3]: 0000000000000003
Mem[4]: 0000000000000004  |  Mem[5]: 0000000000000005  |  Mem[6]: 0000000000000006  |  Mem[7]: 0000000000000007
Mem[8]: 0000000000000008  |  Mem[9]: 0000000000000009  |  Mem[10]: 000000000000000a  |  Mem[11]: 000000000000000b
Mem[12]: 000000000000000c  |  Mem[13]: 000000000000000d  |  Mem[14]: 000000000000000e  |  Mem[15]: 000000000000000f
Mem[16]: 0000000000000010  |  Mem[17]: 0000000000000011  |  Mem[18]: 0000000000000012  |  Mem[19]: 0000000000000013
Mem[20]: 0000000000000014  |  Mem[21]: 0000000000000015  |  Mem[22]: 0000000000000016  |  Mem[23]: 0000000000000017
Mem[24]: 0000000000000018  |  Mem[25]: 0000000000000019  |  Mem[26]: 000000000000001a  |  Mem[27]: 000000000000001b
Mem[28]: 000000000000001c  |  Mem[29]: 000000000000001d  |  Mem[30]: 000000000000001e  |  Mem[31]: 000000000000001f

=================================================
  Clock Cycle: 9  |  Time: 100000 ns
=================================================

--- Fetch Stage ---
PC: 0000000000000024  |  Instruction: 010786b3 | BranchTaken: 0

--- Decode Stage ---
Opcode: 0110011  |  rs1:  8  |  rs2:  9  |  rd: 12
funct3: 110  |  funct7: 0000000  |  Immediate: 0000000000000000

--- Execute Stage ---
ReadData1: 0000000000000008  |  ReadData2: 0000000000000009
ALUResult: 0000000000000009  |  Zero: 0 | PC: 000000000000001c | ImmShifted:                    0 | PCPlusImmShifted: 000000000000001c

--- Memory Stage ---
ALUResult: 0000000000000012  |  MemRead: 0  |  MemWrite: 0 | WriteData: 0000000000000000
MemReadData: 0000000000000000

--- Write Back Stage ---
WriteData: ffffffffffffffff

--- Pipeline Registers ---
IF/ID: PC=0000000000000020  |  Instruction=00946633
ID/EX: RegWrite=1  |  MemtoReg=0  |  ALUOp=10  |  ALUSrc=0
EX/MEM: ALUResult=0000000000000012  |  Zero=0  |  MemWrite=0
MEM/WB: RegWrite=1  |  MemtoReg=0  |  WriteData=ffffffffffffffff

--- Register File ---
x[0]: 0000000000000000  |  x[1]: 0000000000000005  |  x[2]: 0000000000000002  |  x[3]: 0000000000000003
x[4]: ffffffffffffffff  |  x[5]: 0000000000000002  |  x[6]: 0000000000000003  |  x[7]: ffffffffffffffff
x[8]: 0000000000000008  |  x[9]: 0000000000000009  |  x[10]: 000000000000000a  |  x[11]: 000000000000000b
x[12]: 000000000000000c  |  x[13]: 000000000000000d  |  x[14]: 000000000000000e  |  x[15]: 000000000000000f
x[16]: 0000000000000010  |  x[17]: 0000000000000011  |  x[18]: 0000000000000012  |  x[19]: 0000000000000013
