Testcases/Terminal txt files/Sequential_Design_TestCase_2.txt
[Running] riscv_seq_tb.v
WARNING: ./instruction_fetch.v:16: Excess hex digits (2 of '0x00418133') while reading 32-bit words.
VCD info: dumpfile TopLevel_tb.vcd opened for output.

=================================================
  Instruction No: 0  |  Time: 10000 ns
=================================================

--- Fetch Stage ---
PC:                    0  |  Instruction: 00418133

--- Decode Stage ---
Opcode: 0110011  |  rs1:  3  |  rs2:  4  |  rd:  2
funct3: 000  |  funct7: 0000000  |  Immediate:                    0

--- Execute Stage ---
ReadData1: 0000000000000003  |  ReadData2: 0000000000000004
Immediate:                    0  |  Shifted Immediate:                    0
ALUOp: 10  |  ALUSrc: 0  |  ALUControl: 0010
ALU Input 1: 0000000000000003  |  ALU Input 2: 0000000000000004  |  ALU Result: 0000000000000007
Zero Flag: 0  |  Branch Taken: 0  |  Branch Address: 0000000000000000

--- Data Memory ---
Address: 0000000000000007  |  Write Data: 0000000000000004  |  Read Data: 0000000000000000
MemWrite: 0  |  MemRead: 0

--- Write Back ---
ALU Result: 0000000000000007  |  Mem Data: 0000000000000000  |  Write Data: 0000000000000007
MemtoReg: 0

--- Control Signals ---
RegWrite: 1  |  ALUSrc: 0  |  MemtoReg: 0
MemRead: 0  |  MemWrite: 0  |  Branch: 0  |  ALUOp: 10

--- Register File (x0 - x31) ---
x[0]: 0000000000000000  |  x[1]: 0000000000000001  |  x[2]: 0000000000000002  |  x[3]: 0000000000000003
x[4]: 0000000000000004  |  x[5]: 0000000000000005  |  x[6]: 0000000000000006  |  x[7]: 0000000000000007
x[8]: 0000000000000008  |  x[9]: 0000000000000009  |  x[10]: 000000000000000a  |  x[11]: 000000000000000b
x[12]: 000000000000000c  |  x[13]: 000000000000000d  |  x[14]: 000000000000000e  |  x[15]: 000000000000000f
x[16]: 0000000000000010  |  x[17]: 0000000000000011  |  x[18]: 0000000000000012  |  x[19]: 0000000000000013
x[20]: 0000000000000014  |  x[21]: 0000000000000015  |  x[22]: 0000000000000016  |  x[23]: 0000000000000017
x[24]: 0000000000000018  |  x[25]: 0000000000000019  |  x[26]: 000000000000001a  |  x[27]: 000000000000001b
x[28]: 000000000000001c  |  x[29]: 000000000000001d  |  x[30]: 000000000000001e  |  x[31]: 000000000000001f

--- Data Memory (Memory[0] - Memory[31]) ---
Mem[0]: 0000000000000000  |  Mem[1]: 0000000000000001  |  Mem[2]: 0000000000000002  |  Mem[3]: 0000000000000003
Mem[4]: 0000000000000004  |  Mem[5]: 0000000000000005  |  Mem[6]: 0000000000000006  |  Mem[7]: 0000000000000007
Mem[8]: 0000000000000008  |  Mem[9]: 0000000000000009  |  Mem[10]: 000000000000000a  |  Mem[11]: 000000000000000b
Mem[12]: 000000000000000c  |  Mem[13]: 000000000000000d  |  Mem[14]: 000000000000000e  |  Mem[15]: 000000000000000f
Mem[16]: 0000000000000010  |  Mem[17]: 0000000000000011  |  Mem[18]: 0000000000000012  |  Mem[19]: 0000000000000013
Mem[20]: 0000000000000014  |  Mem[21]: 0000000000000015  |  Mem[22]: 0000000000000016  |  Mem[23]: 0000000000000017
Mem[24]: 0000000000000018  |  Mem[25]: 0000000000000019  |  Mem[26]: 000000000000001a  |  Mem[27]: 000000000000001b
Mem[28]: 000000000000001c  |  Mem[29]: 000000000000001d  |  Mem[30]: 000000000000001e  |  Mem[31]: 000000000000001f
=================================================


=================================================
  Instruction No: 1  |  Time: 20000 ns
=================================================

--- Fetch Stage ---
PC:                    4  |  Instruction: 004202b3

--- Decode Stage ---
Opcode: 0110011  |  rs1:  4  |  rs2:  4  |  rd:  5
funct3: 000  |  funct7: 0000000  |  Immediate:                    0

--- Execute Stage ---
ReadData1: 0000000000000004  |  ReadData2: 0000000000000004
Immediate:                    0  |  Shifted Immediate:                    0
ALUOp: 10  |  ALUSrc: 0  |  ALUControl: 0010
ALU Input 1: 0000000000000004  |  ALU Input 2: 0000000000000004  |  ALU Result: 0000000000000008
Zero Flag: 0  |  Branch Taken: 0  |  Branch Address: 0000000000000004

--- Data Memory ---
Address: 0000000000000008  |  Write Data: 0000000000000004  |  Read Data: 0000000000000000
MemWrite: 0  |  MemRead: 0

--- Write Back ---
ALU Result: 0000000000000008  |  Mem Data: 0000000000000000  |  Write Data: 0000000000000008
MemtoReg: 0

--- Control Signals ---
RegWrite: 1  |  ALUSrc: 0  |  MemtoReg: 0
MemRead: 0  |  MemWrite: 0  |  Branch: 0  |  ALUOp: 10

--- Register File (x0 - x31) ---
x[0]: 0000000000000000  |  x[1]: 0000000000000001  |  x[2]: 0000000000000007  |  x[3]: 0000000000000003
x[4]: 0000000000000004  |  x[5]: 0000000000000005  |  x[6]: 0000000000000006  |  x[7]: 0000000000000007
x[8]: 0000000000000008  |  x[9]: 0000000000000009  |  x[10]: 000000000000000a  |  x[11]: 000000000000000b
x[12]: 000000000000000c  |  x[13]: 000000000000000d  |  x[14]: 000000000000000e  |  x[15]: 000000000000000f
x[16]: 0000000000000010  |  x[17]: 0000000000000011  |  x[18]: 0000000000000012  |  x[19]: 0000000000000013
x[20]: 0000000000000014  |  x[21]: 0000000000000015  |  x[22]: 0000000000000016  |  x[23]: 0000000000000017
x[24]: 0000000000000018  |  x[25]: 0000000000000019  |  x[26]: 000000000000001a  |  x[27]: 000000000000001b
x[28]: 000000000000001c  |  x[29]: 000000000000001d  |  x[30]: 000000000000001e  |  x[31]: 000000000000001f

--- Data Memory (Memory[0] - Memory[31]) ---
Mem[0]: 0000000000000000  |  Mem[1]: 0000000000000001  |  Mem[2]: 0000000000000002  |  Mem[3]: 0000000000000003
Mem[4]: 0000000000000004  |  Mem[5]: 0000000000000005  |  Mem[6]: 0000000000000006  |  Mem[7]: 0000000000000007
Mem[8]: 0000000000000008  |  Mem[9]: 0000000000000009  |  Mem[10]: 000000000000000a  |  Mem[11]: 000000000000000b
Mem[12]: 000000000000000c  |  Mem[13]: 000000000000000d  |  Mem[14]: 000000000000000e  |  Mem[15]: 000000000000000f
Mem[16]: 0000000000000010  |  Mem[17]: 0000000000000011  |  Mem[18]: 0000000000000012  |  Mem[19]: 0000000000000013
Mem[20]: 0000000000000014  |  Mem[21]: 0000000000000015  |  Mem[22]: 0000000000000016  |  Mem[23]: 0000000000000017
Mem[24]: 0000000000000018  |  Mem[25]: 0000000000000019  |  Mem[26]: 000000000000001a  |  Mem[27]: 000000000000001b
Mem[28]: 000000000000001c  |  Mem[29]: 000000000000001d  |  Mem[30]: 000000000000001e  |  Mem[31]: 000000000000001f
=================================================


=================================================
  Instruction No: 2  |  Time: 30000 ns
=================================================

--- Fetch Stage ---
PC:                    8  |  Instruction: 00a00513

--- Decode Stage ---
Opcode: 0010011  |  rs1:  0  |  rs2:  0  |  rd: 10
funct3: 000  |  funct7: 0000000  |  Immediate:                   10

--- Execute Stage ---
ReadData1: 0000000000000000  |  ReadData2: 0000000000000000
Immediate:                   10  |  Shifted Immediate:                   20
ALUOp: 00  |  ALUSrc: 1  |  ALUControl: 0010
ALU Input 1: 0000000000000000  |  ALU Input 2: 000000000000000a  |  ALU Result: 000000000000000a
Zero Flag: 0  |  Branch Taken: 0  |  Branch Address: 000000000000001c

--- Data Memory ---
Address: 000000000000000a  |  Write Data: 0000000000000000  |  Read Data: 0000000000000000
MemWrite: 0  |  MemRead: 0

--- Write Back ---
ALU Result: 000000000000000a  |  Mem Data: 0000000000000000  |  Write Data: 000000000000000a
MemtoReg: 0

--- Control Signals ---
RegWrite: 1  |  ALUSrc: 1  |  MemtoReg: 0
MemRead: 0  |  MemWrite: 0  |  Branch: 0  |  ALUOp: 00

--- Register File (x0 - x31) ---
x[0]: 0000000000000000  |  x[1]: 0000000000000001  |  x[2]: 0000000000000007  |  x[3]: 0000000000000003
x[4]: 0000000000000004  |  x[5]: 0000000000000008  |  x[6]: 0000000000000006  |  x[7]: 0000000000000007
x[8]: 0000000000000008  |  x[9]: 0000000000000009  |  x[10]: 000000000000000a  |  x[11]: 000000000000000b
x[12]: 000000000000000c  |  x[13]: 000000000000000d  |  x[14]: 000000000000000e  |  x[15]: 000000000000000f
x[16]: 0000000000000010  |  x[17]: 0000000000000011  |  x[18]: 0000000000000012  |  x[19]: 0000000000000013
x[20]: 0000000000000014  |  x[21]: 0000000000000015  |  x[22]: 0000000000000016  |  x[23]: 0000000000000017
x[24]: 0000000000000018  |  x[25]: 0000000000000019  |  x[26]: 000000000000001a  |  x[27]: 000000000000001b
x[28]: 000000000000001c  |  x[29]: 000000000000001d  |  x[30]: 000000000000001e  |  x[31]: 000000000000001f

--- Data Memory (Memory[0] - Memory[31]) ---
Mem[0]: 0000000000000000  |  Mem[1]: 0000000000000001  |  Mem[2]: 0000000000000002  |  Mem[3]: 0000000000000003
Mem[4]: 0000000000000004  |  Mem[5]: 0000000000000005  |  Mem[6]: 0000000000000006  |  Mem[7]: 0000000000000007
Mem[8]: 0000000000000008  |  Mem[9]: 0000000000000009  |  Mem[10]: 000000000000000a  |  Mem[11]: 000000000000000b
Mem[12]: 000000000000000c  |  Mem[13]: 000000000000000d  |  Mem[14]: 000000000000000e  |  Mem[15]: 000000000000000f
Mem[16]: 0000000000000010  |  Mem[17]: 0000000000000011  |  Mem[18]: 0000000000000012  |  Mem[19]: 0000000000000013
Mem[20]: 0000000000000014  |  Mem[21]: 0000000000000015  |  Mem[22]: 0000000000000016  |  Mem[23]: 0000000000000017
Mem[24]: 0000000000000018  |  Mem[25]: 0000000000000019  |  Mem[26]: 000000000000001a  |  Mem[27]: 000000000000001b
Mem[28]: 000000000000001c  |  Mem[29]: 000000000000001d  |  Mem[30]: 000000000000001e  |  Mem[31]: 000000000000001f
=================================================


=================================================
  Instruction No: 3  |  Time: 40000 ns
=================================================

--- Fetch Stage ---
PC:                   12  |  Instruction: 00a00593

--- Decode Stage ---
Opcode: 0010011  |  rs1:  0  |  rs2:  0  |  rd: 11
funct3: 000  |  funct7: 0000000  |  Immediate:                   10

--- Execute Stage ---
ReadData1: 0000000000000000  |  ReadData2: 0000000000000000
Immediate:                   10  |  Shifted Immediate:                   20
ALUOp: 00  |  ALUSrc: 1  |  ALUControl: 0010
ALU Input 1: 0000000000000000  |  ALU Input 2: 000000000000000a  |  ALU Result: 000000000000000a
Zero Flag: 0  |  Branch Taken: 0  |  Branch Address: 0000000000000020

--- Data Memory ---
Address: 000000000000000a  |  Write Data: 0000000000000000  |  Read Data: 0000000000000000
MemWrite: 0  |  MemRead: 0

--- Write Back ---
ALU Result: 000000000000000a  |  Mem Data: 0000000000000000  |  Write Data: 000000000000000a
MemtoReg: 0

--- Control Signals ---
RegWrite: 1  |  ALUSrc: 1  |  MemtoReg: 0
MemRead: 0  |  MemWrite: 0  |  Branch: 0  |  ALUOp: 00

--- Register File (x0 - x31) ---
x[0]: 0000000000000000  |  x[1]: 0000000000000001  |  x[2]: 0000000000000007  |  x[3]: 0000000000000003
x[4]: 0000000000000004  |  x[5]: 0000000000000008  |  x[6]: 0000000000000006  |  x[7]: 0000000000000007
x[8]: 0000000000000008  |  x[9]: 0000000000000009  |  x[10]: 000000000000000a  |  x[11]: 000000000000000b
x[12]: 000000000000000c  |  x[13]: 000000000000000d  |  x[14]: 000000000000000e  |  x[15]: 000000000000000f
x[16]: 0000000000000010  |  x[17]: 0000000000000011  |  x[18]: 0000000000000012  |  x[19]: 0000000000000013
x[20]: 0000000000000014  |  x[21]: 0000000000000015  |  x[22]: 0000000000000016  |  x[23]: 0000000000000017
x[24]: 0000000000000018  |  x[25]: 0000000000000019  |  x[26]: 000000000000001a  |  x[27]: 000000000000001b
x[28]: 000000000000001c  |  x[29]: 000000000000001d  |  x[30]: 000000000000001e  |  x[31]: 000000000000001f

--- Data Memory (Memory[0] - Memory[31]) ---
Mem[0]: 0000000000000000  |  Mem[1]: 0000000000000001  |  Mem[2]: 0000000000000002  |  Mem[3]: 0000000000000003
Mem[4]: 0000000000000004  |  Mem[5]: 0000000000000005  |  Mem[6]: 0000000000000006  |  Mem[7]: 0000000000000007
Mem[8]: 0000000000000008  |  Mem[9]: 0000000000000009  |  Mem[10]: 000000000000000a  |  Mem[11]: 000000000000000b
Mem[12]: 000000000000000c  |  Mem[13]: 000000000000000d  |  Mem[14]: 000000000000000e  |  Mem[15]: 000000000000000f
Mem[16]: 0000000000000010  |  Mem[17]: 0000000000000011  |  Mem[18]: 0000000000000012  |  Mem[19]: 0000000000000013
Mem[20]: 0000000000000014  |  Mem[21]: 0000000000000015  |  Mem[22]: 0000000000000016  |  Mem[23]: 0000000000000017
Mem[24]: 0000000000000018  |  Mem[25]: 0000000000000019  |  Mem[26]: 000000000000001a  |  Mem[27]: 000000000000001b
Mem[28]: 000000000000001c  |  Mem[29]: 000000000000001d  |  Mem[30]: 000000000000001e  |  Mem[31]: 000000000000001f
=================================================


=================================================
  Instruction No: 4  |  Time: 50000 ns
=================================================

--- Fetch Stage ---
PC:                   16  |  Instruction: 40310233

--- Decode Stage ---
Opcode: 0110011  |  rs1:  2  |  rs2:  3  |  rd:  4
funct3: 000  |  funct7: 0100000  |  Immediate:                    0

--- Execute Stage ---
ReadData1: 0000000000000007  |  ReadData2: 0000000000000003
Immediate:                    0  |  Shifted Immediate:                    0
ALUOp: 10  |  ALUSrc: 0  |  ALUControl: 0110
ALU Input 1: 0000000000000007  |  ALU Input 2: 0000000000000003  |  ALU Result: 0000000000000004
Zero Flag: 0  |  Branch Taken: 0  |  Branch Address: 0000000000000010

--- Data Memory ---
Address: 0000000000000004  |  Write Data: 0000000000000003  |  Read Data: 0000000000000000
MemWrite: 0  |  MemRead: 0

--- Write Back ---
ALU Result: 0000000000000004  |  Mem Data: 0000000000000000  |  Write Data: 0000000000000004
MemtoReg: 0

--- Control Signals ---
RegWrite: 1  |  ALUSrc: 0  |  MemtoReg: 0
MemRead: 0  |  MemWrite: 0  |  Branch: 0  |  ALUOp: 10

--- Register File (x0 - x31) ---
x[0]: 0000000000000000  |  x[1]: 0000000000000001  |  x[2]: 0000000000000007  |  x[3]: 0000000000000003
x[4]: 0000000000000004  |  x[5]: 0000000000000008  |  x[6]: 0000000000000006  |  x[7]: 0000000000000007
x[8]: 0000000000000008  |  x[9]: 0000000000000009  |  x[10]: 000000000000000a  |  x[11]: 000000000000000a
x[12]: 000000000000000c  |  x[13]: 000000000000000d  |  x[14]: 000000000000000e  |  x[15]: 000000000000000f
x[16]: 0000000000000010  |  x[17]: 0000000000000011  |  x[18]: 0000000000000012  |  x[19]: 0000000000000013
x[20]: 0000000000000014  |  x[21]: 0000000000000015  |  x[22]: 0000000000000016  |  x[23]: 0000000000000017
x[24]: 0000000000000018  |  x[25]: 0000000000000019  |  x[26]: 000000000000001a  |  x[27]: 000000000000001b
x[28]: 000000000000001c  |  x[29]: 000000000000001d  |  x[30]: 000000000000001e  |  x[31]: 000000000000001f

--- Data Memory (Memory[0] - Memory[31]) ---
Mem[0]: 0000000000000000  |  Mem[1]: 0000000000000001  |  Mem[2]: 0000000000000002  |  Mem[3]: 0000000000000003
Mem[4]: 0000000000000004  |  Mem[5]: 0000000000000005  |  Mem[6]: 0000000000000006  |  Mem[7]: 0000000000000007
Mem[8]: 0000000000000008  |  Mem[9]: 0000000000000009  |  Mem[10]: 000000000000000a  |  Mem[11]: 000000000000000b
Mem[12]: 000000000000000c  |  Mem[13]: 000000000000000d  |  Mem[14]: 000000000000000e  |  Mem[15]: 000000000000000f
Mem[16]: 0000000000000010  |  Mem[17]: 0000000000000011  |  Mem[18]: 0000000000000012  |  Mem[19]: 0000000000000013
Mem[20]: 0000000000000014  |  Mem[21]: 0000000000000015  |  Mem[22]: 0000000000000016  |  Mem[23]: 0000000000000017
Mem[24]: 0000000000000018  |  Mem[25]: 0000000000000019  |  Mem[26]: 000000000000001a  |  Mem[27]: 000000000000001b
Mem[28]: 000000000000001c  |  Mem[29]: 000000000000001d  |  Mem[30]: 000000000000001e  |  Mem[31]: 000000000000001f
=================================================


=================================================
  Instruction No: 5  |  Time: 60000 ns
=================================================

--- Fetch Stage ---
PC:                   20  |  Instruction: 00b50463

--- Decode Stage ---
Opcode: 1100011  |  rs1: 10  |  rs2: 11  |  rd:  0
funct3: 000  |  funct7: 0000000  |  Immediate:                    8

--- Execute Stage ---
ReadData1: 000000000000000a  |  ReadData2: 000000000000000a
Immediate:                    8  |  Shifted Immediate:                   16
ALUOp: 01  |  ALUSrc: 0  |  ALUControl: 0110
ALU Input 1: 000000000000000a  |  ALU Input 2: 000000000000000a  |  ALU Result: 0000000000000000
Zero Flag: 1  |  Branch Taken: 1  |  Branch Address: 0000000000000024

--- Data Memory ---
Address: 0000000000000000  |  Write Data: 000000000000000a  |  Read Data: 0000000000000000
MemWrite: 0  |  MemRead: 0

--- Write Back ---
ALU Result: 0000000000000000  |  Mem Data: 0000000000000000  |  Write Data: 0000000000000000
MemtoReg: 0

--- Control Signals ---
RegWrite: 0  |  ALUSrc: 0  |  MemtoReg: 0
MemRead: 0  |  MemWrite: 0  |  Branch: 1  |  ALUOp: 01

--- Register File (x0 - x31) ---
x[0]: 0000000000000000  |  x[1]: 0000000000000001  |  x[2]: 0000000000000007  |  x[3]: 0000000000000003
x[4]: 0000000000000004  |  x[5]: 0000000000000008  |  x[6]: 0000000000000006  |  x[7]: 0000000000000007
x[8]: 0000000000000008  |  x[9]: 0000000000000009  |  x[10]: 000000000000000a  |  x[11]: 000000000000000a
x[12]: 000000000000000c  |  x[13]: 000000000000000d  |  x[14]: 000000000000000e  |  x[15]: 000000000000000f
x[16]: 0000000000000010  |  x[17]: 0000000000000011  |  x[18]: 0000000000000012  |  x[19]: 0000000000000013
x[20]: 0000000000000014  |  x[21]: 0000000000000015  |  x[22]: 0000000000000016  |  x[23]: 0000000000000017
x[24]: 0000000000000018  |  x[25]: 0000000000000019  |  x[26]: 000000000000001a  |  x[27]: 000000000000001b
x[28]: 000000000000001c  |  x[29]: 000000000000001d  |  x[30]: 000000000000001e  |  x[31]: 000000000000001f

--- Data Memory (Memory[0] - Memory[31]) ---
Mem[0]: 0000000000000000  |  Mem[1]: 0000000000000001  |  Mem[2]: 0000000000000002  |  Mem[3]: 0000000000000003
Mem[4]: 0000000000000004  |  Mem[5]: 0000000000000005  |  Mem[6]: 0000000000000006  |  Mem[7]: 0000000000000007
Mem[8]: 0000000000000008  |  Mem[9]: 0000000000000009  |  Mem[10]: 000000000000000a  |  Mem[11]: 000000000000000b
Mem[12]: 000000000000000c  |  Mem[13]: 000000000000000d  |  Mem[14]: 000000000000000e  |  Mem[15]: 000000000000000f
Mem[16]: 0000000000000010  |  Mem[17]: 0000000000000011  |  Mem[18]: 0000000000000012  |  Mem[19]: 0000000000000013
Mem[20]: 0000000000000014  |  Mem[21]: 0000000000000015  |  Mem[22]: 0000000000000016  |  Mem[23]: 0000000000000017
Mem[24]: 0000000000000018  |  Mem[25]: 0000000000000019  |  Mem[26]: 000000000000001a  |  Mem[27]: 000000000000001b
Mem[28]: 000000000000001c  |  Mem[29]: 000000000000001d  |  Mem[30]: 000000000000001e  |  Mem[31]: 000000000000001f
=================================================


=================================================
  Instruction No: 6  |  Time: 70000 ns
=================================================

--- Fetch Stage ---
PC:                   36  |  Instruction: 009403b3

--- Decode Stage ---
Opcode: 0110011  |  rs1:  8  |  rs2:  9  |  rd:  7
funct3: 000  |  funct7: 0000000  |  Immediate:                    0

--- Execute Stage ---
ReadData1: 0000000000000008  |  ReadData2: 0000000000000009
Immediate:                    0  |  Shifted Immediate:                    0
ALUOp: 10  |  ALUSrc: 0  |  ALUControl: 0010
ALU Input 1: 0000000000000008  |  ALU Input 2: 0000000000000009  |  ALU Result: 0000000000000011
Zero Flag: 0  |  Branch Taken: 0  |  Branch Address: 0000000000000024

--- Data Memory ---
Address: 0000000000000011  |  Write Data: 0000000000000009  |  Read Data: 0000000000000000
MemWrite: 0  |  MemRead: 0

--- Write Back ---
ALU Result: 0000000000000011  |  Mem Data: 0000000000000000  |  Write Data: 0000000000000011
MemtoReg: 0

--- Control Signals ---
RegWrite: 1  |  ALUSrc: 0  |  MemtoReg: 0
MemRead: 0  |  MemWrite: 0  |  Branch: 0  |  ALUOp: 10

--- Register File (x0 - x31) ---
x[0]: 0000000000000000  |  x[1]: 0000000000000001  |  x[2]: 0000000000000007  |  x[3]: 0000000000000003
x[4]: 0000000000000004  |  x[5]: 0000000000000008  |  x[6]: 0000000000000006  |  x[7]: 0000000000000007
x[8]: 0000000000000008  |  x[9]: 0000000000000009  |  x[10]: 000000000000000a  |  x[11]: 000000000000000a
x[12]: 000000000000000c  |  x[13]: 000000000000000d  |  x[14]: 000000000000000e  |  x[15]: 000000000000000f
x[16]: 0000000000000010  |  x[17]: 0000000000000011  |  x[18]: 0000000000000012  |  x[19]: 0000000000000013
x[20]: 0000000000000014  |  x[21]: 0000000000000015  |  x[22]: 0000000000000016  |  x[23]: 0000000000000017
x[24]: 0000000000000018  |  x[25]: 0000000000000019  |  x[26]: 000000000000001a  |  x[27]: 000000000000001b
x[28]: 000000000000001c  |  x[29]: 000000000000001d  |  x[30]: 000000000000001e  |  x[31]: 000000000000001f

--- Data Memory (Memory[0] - Memory[31]) ---
Mem[0]: 0000000000000000  |  Mem[1]: 0000000000000001  |  Mem[2]: 0000000000000002  |  Mem[3]: 0000000000000003
Mem[4]: 0000000000000004  |  Mem[5]: 0000000000000005  |  Mem[6]: 0000000000000006  |  Mem[7]: 0000000000000007
Mem[8]: 0000000000000008  |  Mem[9]: 0000000000000009  |  Mem[10]: 000000000000000a  |  Mem[11]: 000000000000000b
Mem[12]: 000000000000000c  |  Mem[13]: 000000000000000d  |  Mem[14]: 000000000000000e  |  Mem[15]: 000000000000000f
Mem[16]: 0000000000000010  |  Mem[17]: 0000000000000011  |  Mem[18]: 0000000000000012  |  Mem[19]: 0000000000000013
Mem[20]: 0000000000000014  |  Mem[21]: 0000000000000015  |  Mem[22]: 0000000000000016  |  Mem[23]: 0000000000000017
Mem[24]: 0000000000000018  |  Mem[25]: 0000000000000019  |  Mem[26]: 000000000000001a  |  Mem[27]: 000000000000001b
Mem[28]: 000000000000001c  |  Mem[29]: 000000000000001d  |  Mem[30]: 000000000000001e  |  Mem[31]: 000000000000001f
=================================================


=================================================
  Instruction No: 7  |  Time: 80000 ns
=================================================

--- Fetch Stage ---
PC:                   40  |  Instruction: 01498933

--- Decode Stage ---
Opcode: 0110011  |  rs1: 19  |  rs2: 20  |  rd: 18
funct3: 000  |  funct7: 0000000  |  Immediate:                    0

--- Execute Stage ---
ReadData1: 0000000000000013  |  ReadData2: 0000000000000014
Immediate:                    0  |  Shifted Immediate:                    0
ALUOp: 10  |  ALUSrc: 0  |  ALUControl: 0010
ALU Input 1: 0000000000000013  |  ALU Input 2: 0000000000000014  |  ALU Result: 0000000000000027
Zero Flag: 0  |  Branch Taken: 0  |  Branch Address: 0000000000000028

--- Data Memory ---
Address: 0000000000000027  |  Write Data: 0000000000000014  |  Read Data: 0000000000000000
MemWrite: 0  |  MemRead: 0

--- Write Back ---
ALU Result: 0000000000000027  |  Mem Data: 0000000000000000  |  Write Data: 0000000000000027
MemtoReg: 0

--- Control Signals ---
RegWrite: 1  |  ALUSrc: 0  |  MemtoReg: 0
MemRead: 0  |  MemWrite: 0  |  Branch: 0  |  ALUOp: 10

--- Register File (x0 - x31) ---
x[0]: 0000000000000000  |  x[1]: 0000000000000001  |  x[2]: 0000000000000007  |  x[3]: 0000000000000003
x[4]: 0000000000000004  |  x[5]: 0000000000000008  |  x[6]: 0000000000000006  |  x[7]: 0000000000000011
x[8]: 0000000000000008  |  x[9]: 0000000000000009  |  x[10]: 000000000000000a  |  x[11]: 000000000000000a
x[12]: 000000000000000c  |  x[13]: 000000000000000d  |  x[14]: 000000000000000e  |  x[15]: 000000000000000f
x[16]: 0000000000000010  |  x[17]: 0000000000000011  |  x[18]: 0000000000000012  |  x[19]: 0000000000000013
x[20]: 0000000000000014  |  x[21]: 0000000000000015  |  x[22]: 0000000000000016  |  x[23]: 0000000000000017
x[24]: 0000000000000018  |  x[25]: 0000000000000019  |  x[26]: 000000000000001a  |  x[27]: 000000000000001b
x[28]: 000000000000001c  |  x[29]: 000000000000001d  |  x[30]: 000000000000001e  |  x[31]: 000000000000001f

--- Data Memory (Memory[0] - Memory[31]) ---
Mem[0]: 0000000000000000  |  Mem[1]: 0000000000000001  |  Mem[2]: 0000000000000002  |  Mem[3]: 0000000000000003
Mem[4]: 0000000000000004  |  Mem[5]: 0000000000000005  |  Mem[6]: 0000000000000006  |  Mem[7]: 0000000000000007
Mem[8]: 0000000000000008  |  Mem[9]: 0000000000000009  |  Mem[10]: 000000000000000a  |  Mem[11]: 000000000000000b
Mem[12]: 000000000000000c  |  Mem[13]: 000000000000000d  |  Mem[14]: 000000000000000e  |  Mem[15]: 000000000000000f
Mem[16]: 0000000000000010  |  Mem[17]: 0000000000000011  |  Mem[18]: 0000000000000012  |  Mem[19]: 0000000000000013
Mem[20]: 0000000000000014  |  Mem[21]: 0000000000000015  |  Mem[22]: 0000000000000016  |  Mem[23]: 0000000000000017
Mem[24]: 0000000000000018  |  Mem[25]: 0000000000000019  |  Mem[26]: 000000000000001a  |  Mem[27]: 000000000000001b
Mem[28]: 000000000000001c  |  Mem[29]: 000000000000001d  |  Mem[30]: 000000000000001e  |  Mem[31]: 000000000000001f
=================================================


=================================================
  Instruction No: 8  |  Time: 90000 ns
=================================================

--- Fetch Stage ---
PC:                   44  |  Instruction: 00e6e633

--- Decode Stage ---
Opcode: 0110011  |  rs1: 13  |  rs2: 14  |  rd: 12
funct3: 110  |  funct7: 0000000  |  Immediate:                    0

--- Execute Stage ---
ReadData1: 000000000000000d  |  ReadData2: 000000000000000e
Immediate:                    0  |  Shifted Immediate:                    0
ALUOp: 10  |  ALUSrc: 0  |  ALUControl: 0001
ALU Input 1: 000000000000000d  |  ALU Input 2: 000000000000000e  |  ALU Result: 000000000000000f
Zero Flag: 0  |  Branch Taken: 0  |  Branch Address: 000000000000002c

--- Data Memory ---
Address: 000000000000000f  |  Write Data: 000000000000000e  |  Read Data: 0000000000000000
MemWrite: 0  |  MemRead: 0

--- Write Back ---
ALU Result: 000000000000000f  |  Mem Data: 0000000000000000  |  Write Data: 000000000000000f
MemtoReg: 0

--- Control Signals ---
RegWrite: 1  |  ALUSrc: 0  |  MemtoReg: 0
MemRead: 0  |  MemWrite: 0  |  Branch: 0  |  ALUOp: 10

--- Register File (x0 - x31) ---
x[0]: 0000000000000000  |  x[1]: 0000000000000001  |  x[2]: 0000000000000007  |  x[3]: 0000000000000003
x[4]: 0000000000000004  |  x[5]: 0000000000000008  |  x[6]: 0000000000000006  |  x[7]: 0000000000000011
x[8]: 0000000000000008  |  x[9]: 0000000000000009  |  x[10]: 000000000000000a  |  x[11]: 000000000000000a
x[12]: 000000000000000c  |  x[13]: 000000000000000d  |  x[14]: 000000000000000e  |  x[15]: 000000000000000f
x[16]: 0000000000000010  |  x[17]: 0000000000000011  |  x[18]: 0000000000000027  |  x[19]: 0000000000000013
x[20]: 0000000000000014  |  x[21]: 0000000000000015  |  x[22]: 0000000000000016  |  x[23]: 0000000000000017
x[24]: 0000000000000018  |  x[25]: 0000000000000019  |  x[26]: 000000000000001a  |  x[27]: 000000000000001b
x[28]: 000000000000001c  |  x[29]: 000000000000001d  |  x[30]: 000000000000001e  |  x[31]: 000000000000001f

--- Data Memory (Memory[0] - Memory[31]) ---
Mem[0]: 0000000000000000  |  Mem[1]: 0000000000000001  |  Mem[2]: 0000000000000002  |  Mem[3]: 0000000000000003
Mem[4]: 0000000000000004  |  Mem[5]: 0000000000000005  |  Mem[6]: 0000000000000006  |  Mem[7]: 0000000000000007
Mem[8]: 0000000000000008  |  Mem[9]: 0000000000000009  |  Mem[10]: 000000000000000a  |  Mem[11]: 000000000000000b
Mem[12]: 000000000000000c  |  Mem[13]: 000000000000000d  |  Mem[14]: 000000000000000e  |  Mem[15]: 000000000000000f
Mem[16]: 0000000000000010  |  Mem[17]: 0000000000000011  |  Mem[18]: 0000000000000012  |  Mem[19]: 0000000000000013
Mem[20]: 0000000000000014  |  Mem[21]: 0000000000000015  |  Mem[22]: 0000000000000016  |  Mem[23]: 0000000000000017
Mem[24]: 0000000000000018  |  Mem[25]: 0000000000000019  |  Mem[26]: 000000000000001a  |  Mem[27]: 000000000000001b
Mem[28]: 000000000000001c  |  Mem[29]: 000000000000001d  |  Mem[30]: 000000000000001e  |  Mem[31]: 000000000000001f
=================================================


=================================================
  Instruction No: 9  |  Time: 100000 ns
=================================================

--- Fetch Stage ---
PC:                   48  |  Instruction: 00418133

--- Decode Stage ---
Opcode: 0110011  |  rs1:  3  |  rs2:  4  |  rd:  2
funct3: 000  |  funct7: 0000000  |  Immediate:                    0

--- Execute Stage ---
ReadData1: 0000000000000003  |  ReadData2: 0000000000000004
Immediate:                    0  |  Shifted Immediate:                    0
ALUOp: 10  |  ALUSrc: 0  |  ALUControl: 0010
ALU Input 1: 0000000000000003  |  ALU Input 2: 0000000000000004  |  ALU Result: 0000000000000007
Zero Flag: 0  |  Branch Taken: 0  |  Branch Address: 0000000000000030

--- Data Memory ---
Address: 0000000000000007  |  Write Data: 0000000000000004  |  Read Data: 0000000000000000
MemWrite: 0  |  MemRead: 0

--- Write Back ---
ALU Result: 0000000000000007  |  Mem Data: 0000000000000000  |  Write Data: 0000000000000007
MemtoReg: 0

--- Control Signals ---
RegWrite: 1  |  ALUSrc: 0  |  MemtoReg: 0
MemRead: 0  |  MemWrite: 0  |  Branch: 0  |  ALUOp: 10

--- Register File (x0 - x31) ---
x[0]: 0000000000000000  |  x[1]: 0000000000000001  |  x[2]: 0000000000000007  |  x[3]: 0000000000000003
