Testcases/Terminal txt files/Sequential_Design_TestCase_3.txt
[Running] riscv_seq_tb.v
WARNING: ./instruction_fetch.v:16: Excess hex digits (2 of '0x00803283') while reading 32-bit words.
VCD info: dumpfile TopLevel_tb.vcd opened for output.

=================================================
  Instruction No: 0  |  Time: 10000 ns
=================================================

--- Fetch Stage ---
PC:                    0  |  Instruction: 00803283

--- Decode Stage ---
Opcode: 0000011  |  rs1:  0  |  rs2:  0  |  rd:  5
funct3: 011  |  funct7: 0000000  |  Immediate:                    8

--- Execute Stage ---
ReadData1: 0000000000000000  |  ReadData2: 0000000000000000
Immediate:                    8  |  Shifted Immediate:                   16
ALUOp: 00  |  ALUSrc: 1  |  ALUControl: 0010
ALU Input 1: 0000000000000000  |  ALU Input 2: 0000000000000008  |  ALU Result: 0000000000000008
Zero Flag: 0  |  Branch Taken: 0  |  Branch Address: 0000000000000010

--- Data Memory ---
Address: 0000000000000008  |  Write Data: 0000000000000000  |  Read Data: 0000000000000001
MemWrite: 0  |  MemRead: 1

--- Write Back ---
ALU Result: 0000000000000008  |  Mem Data: 0000000000000001  |  Write Data: 0000000000000001
MemtoReg: 1

--- Control Signals ---
RegWrite: 1  |  ALUSrc: 1  |  MemtoReg: 1
MemRead: 1  |  MemWrite: 0  |  Branch: 0  |  ALUOp: 00

--- Register File (x0 - x31) ---
x[0]: 0000000000000000  |  x[1]: 0000000000000001  |  x[2]: 0000000000000002  |  x[3]: 0000000000000003
x[4]: 0000000000000004  |  x[5]: 0000000000000005  |  x[6]: 0000000000000006  |  x[7]: 0000000000000007
x[8]: 0000000000000008  |  x[9]: 0000000000000009  |  x[10]: 000000000000000a  |  x[11]: 000000000000000b
x[12]: 000000000000000c  |  x[13]: 000000000000000d  |  x[14]: 000000000000000e  |  x[15]: 000000000000000f
x[16]: 0000000000000010  |  x[17]: 0000000000000011  |  x[18]: 0000000000000012  |  x[19]: 0000000000000013
x[20]: 0000000000000014  |  x[21]: 0000000000000015  |  x[22]: 0000000000000016  |  x[23]: 0000000000000017
x[24]: 0000000000000018  |  x[25]: 0000000000000019  |  x[26]: 000000000000001a  |  x[27]: 000000000000001b
x[28]: 000000000000001c  |  x[29]: 000000000000001d  |  x[30]: 000000000000001e  |  x[31]: 000000000000001f

--- Data Memory (Memory[0] - Memory[31]) ---
Mem[0]: 0000000000000000  |  Mem[1]: 0000000000000001  |  Mem[2]: 0000000000000002  |  Mem[3]: 0000000000000003
Mem[4]: 0000000000000004  |  Mem[5]: 0000000000000005  |  Mem[6]: 0000000000000006  |  Mem[7]: 0000000000000007
Mem[8]: 0000000000000008  |  Mem[9]: 0000000000000009  |  Mem[10]: 000000000000000a  |  Mem[11]: 000000000000000b
Mem[12]: 000000000000000c  |  Mem[13]: 000000000000000d  |  Mem[14]: 000000000000000e  |  Mem[15]: 000000000000000f
Mem[16]: 0000000000000010  |  Mem[17]: 0000000000000011  |  Mem[18]: 0000000000000012  |  Mem[19]: 0000000000000013
Mem[20]: 0000000000000014  |  Mem[21]: 0000000000000015  |  Mem[22]: 0000000000000016  |  Mem[23]: 0000000000000017
Mem[24]: 0000000000000018  |  Mem[25]: 0000000000000019  |  Mem[26]: 000000000000001a  |  Mem[27]: 000000000000001b
Mem[28]: 000000000000001c  |  Mem[29]: 000000000000001d  |  Mem[30]: 000000000000001e  |  Mem[31]: 000000000000001f
=================================================


=================================================
  Instruction No: 1  |  Time: 20000 ns
=================================================

--- Fetch Stage ---
PC:                    4  |  Instruction: 01003303

--- Decode Stage ---
Opcode: 0000011  |  rs1:  0  |  rs2:  0  |  rd:  6
funct3: 011  |  funct7: 0000000  |  Immediate:                   16

--- Execute Stage ---
ReadData1: 0000000000000000  |  ReadData2: 0000000000000000
Immediate:                   16  |  Shifted Immediate:                   32
ALUOp: 00  |  ALUSrc: 1  |  ALUControl: 0010
ALU Input 1: 0000000000000000  |  ALU Input 2: 0000000000000010  |  ALU Result: 0000000000000010
Zero Flag: 0  |  Branch Taken: 0  |  Branch Address: 0000000000000024

--- Data Memory ---
Address: 0000000000000010  |  Write Data: 0000000000000000  |  Read Data: 0000000000000001
MemWrite: 0  |  MemRead: 1

--- Write Back ---
ALU Result: 0000000000000010  |  Mem Data: 0000000000000001  |  Write Data: 0000000000000001
MemtoReg: 1

--- Control Signals ---
RegWrite: 1  |  ALUSrc: 1  |  MemtoReg: 1
MemRead: 1  |  MemWrite: 0  |  Branch: 0  |  ALUOp: 00

--- Register File (x0 - x31) ---
x[0]: 0000000000000000  |  x[1]: 0000000000000001  |  x[2]: 0000000000000002  |  x[3]: 0000000000000003
x[4]: 0000000000000004  |  x[5]: 0000000000000001  |  x[6]: 0000000000000006  |  x[7]: 0000000000000007
x[8]: 0000000000000008  |  x[9]: 0000000000000009  |  x[10]: 000000000000000a  |  x[11]: 000000000000000b
x[12]: 000000000000000c  |  x[13]: 000000000000000d  |  x[14]: 000000000000000e  |  x[15]: 000000000000000f
x[16]: 0000000000000010  |  x[17]: 0000000000000011  |  x[18]: 0000000000000012  |  x[19]: 0000000000000013
x[20]: 0000000000000014  |  x[21]: 0000000000000015  |  x[22]: 0000000000000016  |  x[23]: 0000000000000017
x[24]: 0000000000000018  |  x[25]: 0000000000000019  |  x[26]: 000000000000001a  |  x[27]: 000000000000001b
x[28]: 000000000000001c  |  x[29]: 000000000000001d  |  x[30]: 000000000000001e  |  x[31]: 000000000000001f

--- Data Memory (Memory[0] - Memory[31]) ---
Mem[0]: 0000000000000000  |  Mem[1]: 0000000000000001  |  Mem[2]: 0000000000000002  |  Mem[3]: 0000000000000003
Mem[4]: 0000000000000004  |  Mem[5]: 0000000000000005  |  Mem[6]: 0000000000000006  |  Mem[7]: 0000000000000007
Mem[8]: 0000000000000008  |  Mem[9]: 0000000000000009  |  Mem[10]: 000000000000000a  |  Mem[11]: 000000000000000b
Mem[12]: 000000000000000c  |  Mem[13]: 000000000000000d  |  Mem[14]: 000000000000000e  |  Mem[15]: 000000000000000f
Mem[16]: 0000000000000010  |  Mem[17]: 0000000000000011  |  Mem[18]: 0000000000000012  |  Mem[19]: 0000000000000013
Mem[20]: 0000000000000014  |  Mem[21]: 0000000000000015  |  Mem[22]: 0000000000000016  |  Mem[23]: 0000000000000017
Mem[24]: 0000000000000018  |  Mem[25]: 0000000000000019  |  Mem[26]: 000000000000001a  |  Mem[27]: 000000000000001b
Mem[28]: 000000000000001c  |  Mem[29]: 000000000000001d  |  Mem[30]: 000000000000001e  |  Mem[31]: 000000000000001f
=================================================


=================================================
  Instruction No: 2  |  Time: 30000 ns
=================================================

--- Fetch Stage ---
PC:                    8  |  Instruction: 006283b3

--- Decode Stage ---
Opcode: 0110011  |  rs1:  5  |  rs2:  6  |  rd:  7
funct3: 000  |  funct7: 0000000  |  Immediate:                    0

--- Execute Stage ---
ReadData1: 0000000000000001  |  ReadData2: 0000000000000001
Immediate:                    0  |  Shifted Immediate:                    0
ALUOp: 10  |  ALUSrc: 0  |  ALUControl: 0010
ALU Input 1: 0000000000000001  |  ALU Input 2: 0000000000000001  |  ALU Result: 0000000000000002
Zero Flag: 0  |  Branch Taken: 0  |  Branch Address: 0000000000000008

--- Data Memory ---
Address: 0000000000000002  |  Write Data: 0000000000000001  |  Read Data: 0000000000000002
MemWrite: 0  |  MemRead: 0

--- Write Back ---
ALU Result: 0000000000000002  |  Mem Data: 0000000000000002  |  Write Data: 0000000000000002
MemtoReg: 0

--- Control Signals ---
RegWrite: 1  |  ALUSrc: 0  |  MemtoReg: 0
MemRead: 0  |  MemWrite: 0  |  Branch: 0  |  ALUOp: 10

--- Register File (x0 - x31) ---
x[0]: 0000000000000000  |  x[1]: 0000000000000001  |  x[2]: 0000000000000002  |  x[3]: 0000000000000003
x[4]: 0000000000000004  |  x[5]: 0000000000000001  |  x[6]: 0000000000000001  |  x[7]: 0000000000000007
x[8]: 0000000000000008  |  x[9]: 0000000000000009  |  x[10]: 000000000000000a  |  x[11]: 000000000000000b
x[12]: 000000000000000c  |  x[13]: 000000000000000d  |  x[14]: 000000000000000e  |  x[15]: 000000000000000f
x[16]: 0000000000000010  |  x[17]: 0000000000000011  |  x[18]: 0000000000000012  |  x[19]: 0000000000000013
x[20]: 0000000000000014  |  x[21]: 0000000000000015  |  x[22]: 0000000000000016  |  x[23]: 0000000000000017
x[24]: 0000000000000018  |  x[25]: 0000000000000019  |  x[26]: 000000000000001a  |  x[27]: 000000000000001b
x[28]: 000000000000001c  |  x[29]: 000000000000001d  |  x[30]: 000000000000001e  |  x[31]: 000000000000001f

--- Data Memory (Memory[0] - Memory[31]) ---
Mem[0]: 0000000000000000  |  Mem[1]: 0000000000000001  |  Mem[2]: 0000000000000002  |  Mem[3]: 0000000000000003
Mem[4]: 0000000000000004  |  Mem[5]: 0000000000000005  |  Mem[6]: 0000000000000006  |  Mem[7]: 0000000000000007
Mem[8]: 0000000000000008  |  Mem[9]: 0000000000000009  |  Mem[10]: 000000000000000a  |  Mem[11]: 000000000000000b
Mem[12]: 000000000000000c  |  Mem[13]: 000000000000000d  |  Mem[14]: 000000000000000e  |  Mem[15]: 000000000000000f
Mem[16]: 0000000000000010  |  Mem[17]: 0000000000000011  |  Mem[18]: 0000000000000012  |  Mem[19]: 0000000000000013
Mem[20]: 0000000000000014  |  Mem[21]: 0000000000000015  |  Mem[22]: 0000000000000016  |  Mem[23]: 0000000000000017
Mem[24]: 0000000000000018  |  Mem[25]: 0000000000000019  |  Mem[26]: 000000000000001a  |  Mem[27]: 000000000000001b
Mem[28]: 000000000000001c  |  Mem[29]: 000000000000001d  |  Mem[30]: 000000000000001e  |  Mem[31]: 000000000000001f
=================================================


=================================================
  Instruction No: 3  |  Time: 40000 ns
=================================================

--- Fetch Stage ---
PC:                   12  |  Instruction: 00743423

--- Decode Stage ---
Opcode: 0100011  |  rs1:  8  |  rs2:  7  |  rd:  0
funct3: 011  |  funct7: 0000000  |  Immediate:                    8

--- Execute Stage ---
ReadData1: 0000000000000008  |  ReadData2: 0000000000000002
Immediate:                    8  |  Shifted Immediate:                   16
ALUOp: 00  |  ALUSrc: 1  |  ALUControl: 0010
ALU Input 1: 0000000000000008  |  ALU Input 2: 0000000000000008  |  ALU Result: 0000000000000010
Zero Flag: 0  |  Branch Taken: 0  |  Branch Address: 000000000000001c

--- Data Memory ---
Address: 0000000000000010  |  Write Data: 0000000000000002  |  Read Data: 0000000000000000
MemWrite: 1  |  MemRead: 0

--- Write Back ---
ALU Result: 0000000000000010  |  Mem Data: 0000000000000000  |  Write Data: 0000000000000010
MemtoReg: 0

--- Control Signals ---
RegWrite: 0  |  ALUSrc: 1  |  MemtoReg: 0
MemRead: 0  |  MemWrite: 1  |  Branch: 0  |  ALUOp: 00

--- Register File (x0 - x31) ---
x[0]: 0000000000000000  |  x[1]: 0000000000000001  |  x[2]: 0000000000000002  |  x[3]: 0000000000000003
x[4]: 0000000000000004  |  x[5]: 0000000000000001  |  x[6]: 0000000000000001  |  x[7]: 0000000000000002
x[8]: 0000000000000008  |  x[9]: 0000000000000009  |  x[10]: 000000000000000a  |  x[11]: 000000000000000b
x[12]: 000000000000000c  |  x[13]: 000000000000000d  |  x[14]: 000000000000000e  |  x[15]: 000000000000000f
x[16]: 0000000000000010  |  x[17]: 0000000000000011  |  x[18]: 0000000000000012  |  x[19]: 0000000000000013
x[20]: 0000000000000014  |  x[21]: 0000000000000015  |  x[22]: 0000000000000016  |  x[23]: 0000000000000017
x[24]: 0000000000000018  |  x[25]: 0000000000000019  |  x[26]: 000000000000001a  |  x[27]: 000000000000001b
x[28]: 000000000000001c  |  x[29]: 000000000000001d  |  x[30]: 000000000000001e  |  x[31]: 000000000000001f

--- Data Memory (Memory[0] - Memory[31]) ---
Mem[0]: 0000000000000000  |  Mem[1]: 0000000000000001  |  Mem[2]: 0000000000000002  |  Mem[3]: 0000000000000003
Mem[4]: 0000000000000004  |  Mem[5]: 0000000000000005  |  Mem[6]: 0000000000000006  |  Mem[7]: 0000000000000007
Mem[8]: 0000000000000008  |  Mem[9]: 0000000000000009  |  Mem[10]: 000000000000000a  |  Mem[11]: 000000000000000b
Mem[12]: 000000000000000c  |  Mem[13]: 000000000000000d  |  Mem[14]: 000000000000000e  |  Mem[15]: 000000000000000f
Mem[16]: 0000000000000010  |  Mem[17]: 0000000000000011  |  Mem[18]: 0000000000000012  |  Mem[19]: 0000000000000013
Mem[20]: 0000000000000014  |  Mem[21]: 0000000000000015  |  Mem[22]: 0000000000000016  |  Mem[23]: 0000000000000017
Mem[24]: 0000000000000018  |  Mem[25]: 0000000000000019  |  Mem[26]: 000000000000001a  |  Mem[27]: 000000000000001b
Mem[28]: 000000000000001c  |  Mem[29]: 000000000000001d  |  Mem[30]: 000000000000001e  |  Mem[31]: 000000000000001f
=================================================


=================================================
  Instruction No: 4  |  Time: 50000 ns
=================================================

--- Fetch Stage ---
PC:                   16  |  Instruction: 00843583

--- Decode Stage ---
Opcode: 0000011  |  rs1:  8  |  rs2:  0  |  rd: 11
funct3: 011  |  funct7: 0000000  |  Immediate:                    8

--- Execute Stage ---
ReadData1: 0000000000000008  |  ReadData2: 0000000000000000
Immediate:                    8  |  Shifted Immediate:                   16
ALUOp: 00  |  ALUSrc: 1  |  ALUControl: 0010
ALU Input 1: 0000000000000008  |  ALU Input 2: 0000000000000008  |  ALU Result: 0000000000000010
Zero Flag: 0  |  Branch Taken: 0  |  Branch Address: 0000000000000020

--- Data Memory ---
Address: 0000000000000010  |  Write Data: 0000000000000000  |  Read Data: 0000000000000000
MemWrite: 0  |  MemRead: 1

--- Write Back ---
ALU Result: 0000000000000010  |  Mem Data: 0000000000000000  |  Write Data: 0000000000000000
MemtoReg: 1

--- Control Signals ---
RegWrite: 1  |  ALUSrc: 1  |  MemtoReg: 1
MemRead: 1  |  MemWrite: 0  |  Branch: 0  |  ALUOp: 00

--- Register File (x0 - x31) ---
x[0]: 0000000000000000  |  x[1]: 0000000000000001  |  x[2]: 0000000000000002  |  x[3]: 0000000000000003
x[4]: 0000000000000004  |  x[5]: 0000000000000001  |  x[6]: 0000000000000001  |  x[7]: 0000000000000002
x[8]: 0000000000000008  |  x[9]: 0000000000000009  |  x[10]: 000000000000000a  |  x[11]: 000000000000000b
x[12]: 000000000000000c  |  x[13]: 000000000000000d  |  x[14]: 000000000000000e  |  x[15]: 000000000000000f
x[16]: 0000000000000010  |  x[17]: 0000000000000011  |  x[18]: 0000000000000012  |  x[19]: 0000000000000013
x[20]: 0000000000000014  |  x[21]: 0000000000000015  |  x[22]: 0000000000000016  |  x[23]: 0000000000000017
x[24]: 0000000000000018  |  x[25]: 0000000000000019  |  x[26]: 000000000000001a  |  x[27]: 000000000000001b
x[28]: 000000000000001c  |  x[29]: 000000000000001d  |  x[30]: 000000000000001e  |  x[31]: 000000000000001f

--- Data Memory (Memory[0] - Memory[31]) ---
Mem[0]: 0000000000000000  |  Mem[1]: 0000000000000001  |  Mem[2]: 0000000000000002  |  Mem[3]: 0000000000000003
Mem[4]: 0000000000000004  |  Mem[5]: 0000000000000005  |  Mem[6]: 0000000000000006  |  Mem[7]: 0000000000000007
Mem[8]: 0000000000000008  |  Mem[9]: 0000000000000009  |  Mem[10]: 000000000000000a  |  Mem[11]: 000000000000000b
Mem[12]: 000000000000000c  |  Mem[13]: 000000000000000d  |  Mem[14]: 000000000000000e  |  Mem[15]: 000000000000000f
Mem[16]: 0000000000000010  |  Mem[17]: 0000000000000011  |  Mem[18]: 0000000000000012  |  Mem[19]: 0000000000000013
Mem[20]: 0000000000000014  |  Mem[21]: 0000000000000015  |  Mem[22]: 0000000000000016  |  Mem[23]: 0000000000000017
Mem[24]: 0000000000000018  |  Mem[25]: 0000000000000019  |  Mem[26]: 000000000000001a  |  Mem[27]: 000000000000001b
Mem[28]: 000000000000001c  |  Mem[29]: 000000000000001d  |  Mem[30]: 000000000000001e  |  Mem[31]: 000000000000001f
=================================================


=================================================
  Instruction No: 5  |  Time: 60000 ns
=================================================

--- Fetch Stage ---
PC:                   20  |  Instruction: 00418133

--- Decode Stage ---
Opcode: 0110011  |  rs1:  3  |  rs2:  4  |  rd:  2
funct3: 000  |  funct7: 0000000  |  Immediate:                    0

--- Execute Stage ---
ReadData1: 0000000000000003  |  ReadData2: 0000000000000004
Immediate:                    0  |  Shifted Immediate:                    0
ALUOp: 10  |  ALUSrc: 0  |  ALUControl: 0010
ALU Input 1: 0000000000000003  |  ALU Input 2: 0000000000000004  |  ALU Result: 0000000000000007
Zero Flag: 0  |  Branch Taken: 0  |  Branch Address: 0000000000000014

--- Data Memory ---
Address: 0000000000000007  |  Write Data: 0000000000000004  |  Read Data: 0000000000000002
MemWrite: 0  |  MemRead: 0

--- Write Back ---
ALU Result: 0000000000000007  |  Mem Data: 0000000000000002  |  Write Data: 0000000000000007
MemtoReg: 0

--- Control Signals ---
RegWrite: 1  |  ALUSrc: 0  |  MemtoReg: 0
MemRead: 0  |  MemWrite: 0  |  Branch: 0  |  ALUOp: 10

--- Register File (x0 - x31) ---
x[0]: 0000000000000000  |  x[1]: 0000000000000001  |  x[2]: 0000000000000002  |  x[3]: 0000000000000003
x[4]: 0000000000000004  |  x[5]: 0000000000000001  |  x[6]: 0000000000000001  |  x[7]: 0000000000000002
x[8]: 0000000000000008  |  x[9]: 0000000000000009  |  x[10]: 000000000000000a  |  x[11]: 0000000000000000
x[12]: 000000000000000c  |  x[13]: 000000000000000d  |  x[14]: 000000000000000e  |  x[15]: 000000000000000f
x[16]: 0000000000000010  |  x[17]: 0000000000000011  |  x[18]: 0000000000000012  |  x[19]: 0000000000000013
x[20]: 0000000000000014  |  x[21]: 0000000000000015  |  x[22]: 0000000000000016  |  x[23]: 0000000000000017
x[24]: 0000000000000018  |  x[25]: 0000000000000019  |  x[26]: 000000000000001a  |  x[27]: 000000000000001b
x[28]: 000000000000001c  |  x[29]: 000000000000001d  |  x[30]: 000000000000001e  |  x[31]: 000000000000001f

--- Data Memory (Memory[0] - Memory[31]) ---
Mem[0]: 0000000000000000  |  Mem[1]: 0000000000000001  |  Mem[2]: 0000000000000002  |  Mem[3]: 0000000000000003
Mem[4]: 0000000000000004  |  Mem[5]: 0000000000000005  |  Mem[6]: 0000000000000006  |  Mem[7]: 0000000000000007
Mem[8]: 0000000000000008  |  Mem[9]: 0000000000000009  |  Mem[10]: 000000000000000a  |  Mem[11]: 000000000000000b
Mem[12]: 000000000000000c  |  Mem[13]: 000000000000000d  |  Mem[14]: 000000000000000e  |  Mem[15]: 000000000000000f
Mem[16]: 0000000000000010  |  Mem[17]: 0000000000000011  |  Mem[18]: 0000000000000012  |  Mem[19]: 0000000000000013
Mem[20]: 0000000000000014  |  Mem[21]: 0000000000000015  |  Mem[22]: 0000000000000016  |  Mem[23]: 0000000000000017
Mem[24]: 0000000000000018  |  Mem[25]: 0000000000000019  |  Mem[26]: 000000000000001a  |  Mem[27]: 000000000000001b
Mem[28]: 000000000000001c  |  Mem[29]: 000000000000001d  |  Mem[30]: 000000000000001e  |  Mem[31]: 000000000000001f
=================================================


=================================================
  Instruction No: 6  |  Time: 70000 ns
=================================================

--- Fetch Stage ---
PC:                   24  |  Instruction: 004202b3

--- Decode Stage ---
Opcode: 0110011  |  rs1:  4  |  rs2:  4  |  rd:  5
funct3: 000  |  funct7: 0000000  |  Immediate:                    0

--- Execute Stage ---
ReadData1: 0000000000000004  |  ReadData2: 0000000000000004
Immediate:                    0  |  Shifted Immediate:                    0
ALUOp: 10  |  ALUSrc: 0  |  ALUControl: 0010
ALU Input 1: 0000000000000004  |  ALU Input 2: 0000000000000004  |  ALU Result: 0000000000000008
Zero Flag: 0  |  Branch Taken: 0  |  Branch Address: 0000000000000018

--- Data Memory ---
Address: 0000000000000008  |  Write Data: 0000000000000004  |  Read Data: 0000000000000000
MemWrite: 0  |  MemRead: 0

--- Write Back ---
ALU Result: 0000000000000008  |  Mem Data: 0000000000000000  |  Write Data: 0000000000000008
MemtoReg: 0

--- Control Signals ---
RegWrite: 1  |  ALUSrc: 0  |  MemtoReg: 0
MemRead: 0  |  MemWrite: 0  |  Branch: 0  |  ALUOp: 10

--- Register File (x0 - x31) ---
x[0]: 0000000000000000  |  x[1]: 0000000000000001  |  x[2]: 0000000000000007  |  x[3]: 0000000000000003
x[4]: 0000000000000004  |  x[5]: 0000000000000001  |  x[6]: 0000000000000001  |  x[7]: 0000000000000002
x[8]: 0000000000000008  |  x[9]: 0000000000000009  |  x[10]: 000000000000000a  |  x[11]: 0000000000000000
x[12]: 000000000000000c  |  x[13]: 000000000000000d  |  x[14]: 000000000000000e  |  x[15]: 000000000000000f
x[16]: 0000000000000010  |  x[17]: 0000000000000011  |  x[18]: 0000000000000012  |  x[19]: 0000000000000013
x[20]: 0000000000000014  |  x[21]: 0000000000000015  |  x[22]: 0000000000000016  |  x[23]: 0000000000000017
x[24]: 0000000000000018  |  x[25]: 0000000000000019  |  x[26]: 000000000000001a  |  x[27]: 000000000000001b
x[28]: 000000000000001c  |  x[29]: 000000000000001d  |  x[30]: 000000000000001e  |  x[31]: 000000000000001f

--- Data Memory (Memory[0] - Memory[31]) ---
Mem[0]: 0000000000000000  |  Mem[1]: 0000000000000001  |  Mem[2]: 0000000000000002  |  Mem[3]: 0000000000000003
Mem[4]: 0000000000000004  |  Mem[5]: 0000000000000005  |  Mem[6]: 0000000000000006  |  Mem[7]: 0000000000000007
Mem[8]: 0000000000000008  |  Mem[9]: 0000000000000009  |  Mem[10]: 000000000000000a  |  Mem[11]: 000000000000000b
Mem[12]: 000000000000000c  |  Mem[13]: 000000000000000d  |  Mem[14]: 000000000000000e  |  Mem[15]: 000000000000000f
Mem[16]: 0000000000000010  |  Mem[17]: 0000000000000011  |  Mem[18]: 0000000000000012  |  Mem[19]: 0000000000000013
Mem[20]: 0000000000000014  |  Mem[21]: 0000000000000015  |  Mem[22]: 0000000000000016  |  Mem[23]: 0000000000000017
Mem[24]: 0000000000000018  |  Mem[25]: 0000000000000019  |  Mem[26]: 000000000000001a  |  Mem[27]: 000000000000001b
Mem[28]: 000000000000001c  |  Mem[29]: 000000000000001d  |  Mem[30]: 000000000000001e  |  Mem[31]: 000000000000001f
=================================================


=================================================
  Instruction No: 7  |  Time: 80000 ns
=================================================

--- Fetch Stage ---
PC:                   28  |  Instruction: 40d605b3

--- Decode Stage ---
Opcode: 0110011  |  rs1: 12  |  rs2: 13  |  rd: 11
funct3: 000  |  funct7: 0100000  |  Immediate:                    0

--- Execute Stage ---
ReadData1: 000000000000000c  |  ReadData2: 000000000000000d
Immediate:                    0  |  Shifted Immediate:                    0
ALUOp: 10  |  ALUSrc: 0  |  ALUControl: 0110
ALU Input 1: 000000000000000c  |  ALU Input 2: 000000000000000d  |  ALU Result: ffffffffffffffff
Zero Flag: 0  |  Branch Taken: 0  |  Branch Address: 000000000000001c

--- Data Memory ---
Address: ffffffffffffffff  |  Write Data: 000000000000000d  |  Read Data: 0000000000000000
MemWrite: 0  |  MemRead: 0

--- Write Back ---
ALU Result: ffffffffffffffff  |  Mem Data: 0000000000000000  |  Write Data: ffffffffffffffff
MemtoReg: 0

--- Control Signals ---
RegWrite: 1  |  ALUSrc: 0  |  MemtoReg: 0
MemRead: 0  |  MemWrite: 0  |  Branch: 0  |  ALUOp: 10

--- Register File (x0 - x31) ---
x[0]: 0000000000000000  |  x[1]: 0000000000000001  |  x[2]: 0000000000000007  |  x[3]: 0000000000000003
x[4]: 0000000000000004  |  x[5]: 0000000000000008  |  x[6]: 0000000000000001  |  x[7]: 0000000000000002
x[8]: 0000000000000008  |  x[9]: 0000000000000009  |  x[10]: 000000000000000a  |  x[11]: 0000000000000000
x[12]: 000000000000000c  |  x[13]: 000000000000000d  |  x[14]: 000000000000000e  |  x[15]: 000000000000000f
x[16]: 0000000000000010  |  x[17]: 0000000000000011  |  x[18]: 0000000000000012  |  x[19]: 0000000000000013
x[20]: 0000000000000014  |  x[21]: 0000000000000015  |  x[22]: 0000000000000016  |  x[23]: 0000000000000017
x[24]: 0000000000000018  |  x[25]: 0000000000000019  |  x[26]: 000000000000001a  |  x[27]: 000000000000001b
x[28]: 000000000000001c  |  x[29]: 000000000000001d  |  x[30]: 000000000000001e  |  x[31]: 000000000000001f

--- Data Memory (Memory[0] - Memory[31]) ---
Mem[0]: 0000000000000000  |  Mem[1]: 0000000000000001  |  Mem[2]: 0000000000000002  |  Mem[3]: 0000000000000003
Mem[4]: 0000000000000004  |  Mem[5]: 0000000000000005  |  Mem[6]: 0000000000000006  |  Mem[7]: 0000000000000007
Mem[8]: 0000000000000008  |  Mem[9]: 0000000000000009  |  Mem[10]: 000000000000000a  |  Mem[11]: 000000000000000b
Mem[12]: 000000000000000c  |  Mem[13]: 000000000000000d  |  Mem[14]: 000000000000000e  |  Mem[15]: 000000000000000f
Mem[16]: 0000000000000010  |  Mem[17]: 0000000000000011  |  Mem[18]: 0000000000000012  |  Mem[19]: 0000000000000013
Mem[20]: 0000000000000014  |  Mem[21]: 0000000000000015  |  Mem[22]: 0000000000000016  |  Mem[23]: 0000000000000017
Mem[24]: 0000000000000018  |  Mem[25]: 0000000000000019  |  Mem[26]: 000000000000001a  |  Mem[27]: 000000000000001b
Mem[28]: 000000000000001c  |  Mem[29]: 000000000000001d  |  Mem[30]: 000000000000001e  |  Mem[31]: 000000000000001f
=================================================


=================================================
  Instruction No: 8  |  Time: 90000 ns
=================================================

--- Fetch Stage ---
PC:                   32  |  Instruction: 005261b3

--- Decode Stage ---
Opcode: 0110011  |  rs1:  4  |  rs2:  5  |  rd:  3
funct3: 110  |  funct7: 0000000  |  Immediate:                    0

--- Execute Stage ---
ReadData1: 0000000000000004  |  ReadData2: 0000000000000008
Immediate:                    0  |  Shifted Immediate:                    0
ALUOp: 10  |  ALUSrc: 0  |  ALUControl: 0001
ALU Input 1: 0000000000000004  |  ALU Input 2: 0000000000000008  |  ALU Result: 000000000000000c
Zero Flag: 0  |  Branch Taken: 0  |  Branch Address: 0000000000000020

--- Data Memory ---
Address: 000000000000000c  |  Write Data: 0000000000000008  |  Read Data: 0000000000000000
MemWrite: 0  |  MemRead: 0

--- Write Back ---
ALU Result: 000000000000000c  |  Mem Data: 0000000000000000  |  Write Data: 000000000000000c
MemtoReg: 0

--- Control Signals ---
RegWrite: 1  |  ALUSrc: 0  |  MemtoReg: 0
MemRead: 0  |  MemWrite: 0  |  Branch: 0  |  ALUOp: 10

--- Register File (x0 - x31) ---
x[0]: 0000000000000000  |  x[1]: 0000000000000001  |  x[2]: 0000000000000007  |  x[3]: 0000000000000003
x[4]: 0000000000000004  |  x[5]: 0000000000000008  |  x[6]: 0000000000000001  |  x[7]: 0000000000000002
x[8]: 0000000000000008  |  x[9]: 0000000000000009  |  x[10]: 000000000000000a  |  x[11]: ffffffffffffffff
x[12]: 000000000000000c  |  x[13]: 000000000000000d  |  x[14]: 000000000000000e  |  x[15]: 000000000000000f
x[16]: 0000000000000010  |  x[17]: 0000000000000011  |  x[18]: 0000000000000012  |  x[19]: 0000000000000013
x[20]: 0000000000000014  |  x[21]: 0000000000000015  |  x[22]: 0000000000000016  |  x[23]: 0000000000000017
x[24]: 0000000000000018  |  x[25]: 0000000000000019  |  x[26]: 000000000000001a  |  x[27]: 000000000000001b
x[28]: 000000000000001c  |  x[29]: 000000000000001d  |  x[30]: 000000000000001e  |  x[31]: 000000000000001f

--- Data Memory (Memory[0] - Memory[31]) ---
Mem[0]: 0000000000000000  |  Mem[1]: 0000000000000001  |  Mem[2]: 0000000000000002  |  Mem[3]: 0000000000000003
Mem[4]: 0000000000000004  |  Mem[5]: 0000000000000005  |  Mem[6]: 0000000000000006  |  Mem[7]: 0000000000000007
Mem[8]: 0000000000000008  |  Mem[9]: 0000000000000009  |  Mem[10]: 000000000000000a  |  Mem[11]: 000000000000000b
Mem[12]: 000000000000000c  |  Mem[13]: 000000000000000d  |  Mem[14]: 000000000000000e  |  Mem[15]: 000000000000000f
Mem[16]: 0000000000000010  |  Mem[17]: 0000000000000011  |  Mem[18]: 0000000000000012  |  Mem[19]: 0000000000000013
Mem[20]: 0000000000000014  |  Mem[21]: 0000000000000015  |  Mem[22]: 0000000000000016  |  Mem[23]: 0000000000000017
Mem[24]: 0000000000000018  |  Mem[25]: 0000000000000019  |  Mem[26]: 000000000000001a  |  Mem[27]: 000000000000001b
Mem[28]: 000000000000001c  |  Mem[29]: 000000000000001d  |  Mem[30]: 000000000000001e  |  Mem[31]: 000000000000001f
=================================================


=================================================
  Instruction No: 9  |  Time: 100000 ns
=================================================

--- Fetch Stage ---
PC:                   36  |  Instruction: 01e370b3

--- Decode Stage ---
Opcode: 0110011  |  rs1:  6  |  rs2: 30  |  rd:  1
funct3: 111  |  funct7: 0000000  |  Immediate:                    0

--- Execute Stage ---
ReadData1: 0000000000000001  |  ReadData2: 000000000000001e
Immediate:                    0  |  Shifted Immediate:                    0
ALUOp: 10  |  ALUSrc: 0  |  ALUControl: 0000
ALU Input 1: 0000000000000001  |  ALU Input 2: 000000000000001e  |  ALU Result: 0000000000000000
Zero Flag: 1  |  Branch Taken: 0  |  Branch Address: 0000000000000024

--- Data Memory ---
Address: 0000000000000000  |  Write Data: 000000000000001e  |  Read Data: 0000000000000000
MemWrite: 0  |  MemRead: 0

--- Write Back ---
ALU Result: 0000000000000000  |  Mem Data: 0000000000000000  |  Write Data: 0000000000000000
MemtoReg: 0

--- Control Signals ---
RegWrite: 1  |  ALUSrc: 0  |  MemtoReg: 0
MemRead: 0  |  MemWrite: 0  |  Branch: 0  |  ALUOp: 10

--- Register File (x0 - x31) ---
x[0]: 0000000000000000  |  x[1]: 0000000000000001  |  x[2]: 0000000000000007  |  x[3]: 000000000000000c
